computer recycling electronic recycling or e-waste recycling is the disassembly and separation of components and raw materials of waste electronics although the procedures of re-use donation and repair are not strictly recycling they are other common sustainable ways to dispose of it waste
in 2009 38% of computers and a quarter of total electronic waste was recycled in the united states 5% and 3% up from 3 years prior respectively since its inception in the early 1990s more and more devices are recycled worldwide due to increased awareness and investment electronic recycling occurs primarily in order to recover valuable rare earth metals and precious metals which are in short supply as well as plastics and metals these are resold or used in new devices after purification in effect creating a circular economy
recycling is considered environmentally friendly because it prevents hazardous waste including heavy metals and carcinogens from entering the atmosphere landfill or waterways while electronics consist a small fraction of total waste generated they are far more dangerous there is stringent legislation designed to enforce and encourage the sustainable disposal of appliances; the most notable being the waste electrical and electronic equipment directive of the european union and the united states national computer recycling act
opponents argue that recycling is expensive and ineffective; it does not safeguard data and it stifles innovation it is also criticised for exporting often illegally large volumes of toxic waste to poorer countries such as india china and nigeria for crude manual disassembly by workers who have little regard for the risk to themselves or the environment
== reasons for recycling ==
obsolete computers and old electronics are valuable sources for secondary raw materials if recycled; if not these devices are a source of toxins and carcinogens rapid technology change low initial cost and planned obsolescence have resulted in a fast-growing surplus of computers and other electronic components around the globe technical solutions are available but in most cases a legal framework collection system logistics and other services need to be implemented before applying a technical solution the u.s environmental protection agency estimates 30 to 40 million surplus pcs classified as "hazardous household waste" would be ready for end-of-life management in the next few years the u.s national safety council estimates that 75% of all personal computers ever sold are now surplus electronics
in 2007 the united states environmental protection agency (epa) said that more than 63 million computers in the u.s were traded in for replacements or discarded today 15% of electronic devices and equipment are recycled in the united states most electronic waste is sent to landfills or incinerated which releases materials such as lead mercury or cadmium into the soil groundwater and atmosphere thus having a negative impact on the environment
many materials used in computer hardware can be recovered by recycling for use in future production reuse of tin silicon iron aluminium and a variety of plastics that are present in bulk in computers or other electronics can reduce the costs of constructing new systems components frequently contain lead copper gold and other valuable materials suitable for reclamation
computer components contain many toxic substances like dioxins polychlorinated biphenyls (pcbs) cadmium chromium radioactive isotopes and mercury a typical computer monitor may contain more than 6% lead by weight much of which is in the lead glass of the cathode ray tube (crt) a typical 15 inch (38 cm) computer monitor may contain 1.5 pounds (1 kg) of lead but other monitors have been estimated to have up to 8 pounds (4 kg) of lead circuit boards contain considerable quantities of lead-tin solders that are more likely to leach into groundwater or create air pollution due to incineration the processing (e.g incineration and acid treatments) required to reclaim these precious substances may release generate or synthesize toxic byproducts
export of waste to countries with lower environmental standards is a major concern the basel convention includes hazardous wastes such as but not limited to crt screens as an item that may not be exported transcontinentally without prior consent of both the country exporting and receiving the waste companies may find it cost-effective in the short term to sell outdated computers to less developed countries with lax regulations it is commonly believed that a majority of surplus laptops are routed to developing nations as "dumping grounds for e-waste" the high value of working and reusable laptops computers and components (e.g ram) can help pay the cost of transportation for many worthless "commodities" the laws governing the exportation of waste electronics are put in place to stop "recycling companies" in developed countries from shipping their waste to 3rd world countries as working devices they are never working devices the 3rd world workers scavenge specific items selling value and throw the rest away to rot and become a health hazard in their own backyard
== regulations ==
=== europe ===
in switzerland the first electronic waste recycling system was implemented in 1991 beginning with collection of old refrigerators; over the years all other electric and electronic devices were gradually added to the system the established producer responsibility organization is swico mainly handling information communication and organization technology the european union implemented a similar system in february 2003 under the waste electrical and electronic equipment directive (weee directive 2002/96/ec)
pan european adoption of the legislation was slow on take-up with italy and the united kingdom being the final member states to pass it into law the success of the weee directive has varied significantly from state to state with collection rates varying between 13 kilograms per capita per annum to as little as 1 kg per capita per annum computers & electronic wastes collected from households within europe are treated under the weee directive via producer compliance schemes (whereby manufacturers of electronics pay into a scheme that funds its recovery from household waste recycling centres (hwrcs)) and nominated waste treatment facilities (known as obligated weee)
however recycling of ex corporate computer hardware and associated electronic equipment falls outside the producer compliance scheme (known as non-obligated) in the uk waste or obsolete corporate related computer hardware is treated via third party authorized treatment facilities who normally impose a charge for its collection and treatment
=== united states ===
==== federal ====
the united states congress considers a number of electronic waste bills like the national computer recycling act introduced by congressman mike thompson (d-ca) the main federal law governing solid waste is the resource conservation and recovery act of 1976 it covers only crts though state regulations may differ there are also separate laws concerning battery disposal on march 25 2009 the house science and technology committee approved funding for research on reducing electronic waste and mitigating environmental impact regarded by sponsor ralph hall (r-tx) as the first federal bill to directly address electronic waste
==== state ====
many states have introduced legislation concerning recycling and reuse of computers or computer parts or other electronics most american computer recycling legislations address it from within the larger electronic waste issue
in 2001 arkansas enacted the arkansas computer and electronic solid waste management act which requires that state agencies manage and sell surplus computer equipment establishes a computer and electronics recycling fund and authorizes the department of environmental quality to regulate and/or ban the disposal of computer and electronic equipment in arkansas landfills
the recently passed electronic device recycling research and development act distributes grants to universities government labs and private industries for research in developing projects in line with e-waste recycling and refurbishment
=== asia ===
in japan sellers and manufacturers of certain electronics (such as televisions and air conditioners) are required to recycle them however no legislation exists to cover the recycling of computer or cellphone related wastes
it is required in south korea and taiwan that sellers and manufacturers of electronics be responsible for recycling 75% of their used products
according to a report by unep titled "recycling - from e-waste to resources," the amount of e-waste being produced - including mobile phones and computers - could rise by as much as 500 percent over the next decade in some countries such as india
one theory is that increased regulation of electronic waste and concern over the environmental harm in mature economies creates an economic disincentive to remove residues prior to export critics of trade in used electronics maintain that it is too easy for brokers calling themselves recyclers to export unscreened electronic waste to developing countries such as china india and parts of africa thus avoiding the expense of removing items like bad cathode ray tubes (the processing of which is expensive and difficult) the developing countries are becoming big dump yards of e-waste proponents of international trade point to the success of fair trade programs in other industries where cooperation has led creation of sustainable jobs and can bring affordable technology in countries where repair and reuse rates are higher
organizations like a2z group (company website [2]) have stepped in to own up the responsibility to collect and recycle e-waste at various locations in india
=== south africa ===
thanks to the national environmental management act 1998 and national environmental management waste act 2008 any person in any position causing harm to the environment and failing to comply with the waste act could be fined r10 million or put into jail or receive both penalties for their transgressions
== recycling methods ==
=== consumer recycling ===
consumer recycling options consists of (see below) sale donating computers directly to organizations in need sending devices directly back to their original manufacturers or getting components to a convenient recycler or refurbisher
=== scrapping/recycling ===
the rising price of precious metals coupled with the high rate of unemployment during the great recession has led to a larger number of amateur "for profit" electronics recyclers computer parts for example are stripped of their most valuable components and sold for scrap metals like copper aluminum lead gold and palladium are recovered from computers televisions and more
in the recycling process tvs monitors mobile phones and computers are typically tested for reuse and repaired if broken they may be disassembled for parts still having high value if labour is cheap enough other e-waste is shredded to roughly 100 mm pieces and manually checked to separate out toxic batteries and capacitors which contain poisonous metals the remaining pieces are further shredded to ~10 mm and passed under a magnet to remove ferrous metals an eddy current ejects non-ferrous metals which are sorted by density either by a centrifuge or vibrating plates precious metals can be dissolved in acid sorted and smelted into ingots the remaining glass and plastic fractions are separated by density and sold to re-processors tvs and monitors must be manually disassembled to remove either toxic lead in crts or the mercury in flat screens
=== corporate recycling ===
businesses seeking a cost-effective way to recycle large amounts of computer equipment responsibly face a more complicated process
businesses also have the options of sale or contacting the original equipment manufacturers (oems) and arranging recycling options
some companies pick up unwanted equipment from businesses wipe the data clean from the systems and provide an estimate of the products remaining value for unwanted items that still have value these firms buy the excess it hardware and sell refurbished products to those seeking more affordable options than buying new
companies that specialize in data protection and green disposal processes dispose of both data and used equipment while employing strict procedures to help improve the environment professional it asset disposition (itad) firms specialize in corporate computer disposal and recycling services in compliance with local laws and regulations and also offer secure data elimination services that comply with data remanence standards including national institute of standards and technology
corporations face risks both for incompletely destroyed data and for improperly disposed computers in the uk some recycling companies use a specialized weee-registered contractor to dispose it equipment and electrical appliances who disposes it safely and legally in america companies are liable for compliance with regulations even if the recycling process is outsourced under the resource conservation and recovery act companies can mitigate these risks by requiring waivers of liability audit trails certificates of data destruction signed confidentiality agreements and random audits of information security the national association of information destruction is an international trade association for data destruction providers
=== sale ===
online auctions are an alternative for consumers willing to resell for cash less fees in a complicated self-managed competitive environment where paid listings might not sell online classified ads can be similarly risky due to forgery scams and uncertainty
=== take back ===
when researching computer companies before a computer purchase consumers can find out if they offer recycling services most major computer manufacturers offer some form of recycling at the user's request they may mail in their old computers or arrange for pickup from the manufacturer
hewlett-packard also offers free recycling but only one of its "national" recycling programs is available nationally rather than in one or two specific states hewlett-packard also offers to pick up any computer product of any brand for a fee and to offer a coupon against the purchase of future computers or components; it was the largest computer recycler in america in 2003 and it has recycled over 750,000,000 pounds (340,000,000 kg) of electronic waste globally since 1995 it encourages the shared approach of collection points for consumers and recyclers to meet
=== exchange ===
manufacturers often offer a free replacement service when purchasing a new pc dell computers and apple inc take back old products when one buys a new one both refurbish and resell their own computers with a one-year warranty
many companies purchase and recycle all brands of working and broken laptops and notebook computers from individuals and corporations building a market for recycling of desktop computers has proven more difficult than exchange programs for laptops smartphones and other smaller electronics a basic business model is to provide a seller an instant online quote based on laptop characteristics then to send a shipping label and prepaid box to the seller to erase reformat and process the laptop and to pay rapidly by cheque a majority of these companies are also generalized electronic waste recyclers as well; organizations that recycle computers exclusively include cash for laptops a laptop refurbisher in nevada that claims to be the first to buy laptops online in 2001
=== donations/nonprofits ===
with the constant rising costs due to inflation many families or schools do not have the sufficient funds available for computers to be utilized along with education standards families also impacted by disaster suffer as well due to the financial impact of the situation they have incurred many nonprofit organizations such as interconnection.org can be found locally as well as around the web and give detailed descriptions as to what methods are used for dissemination and detailed instructions on how to donate the impact can be seen locally and globally affecting thousands of those in need in canada non profit organizations engaged in computer recycling such as the electronic recycling association calgary edmonton vancouver winnipeg toronto montreal computers for schools canada wide are very active in collecting and refurbishing computers and laptops to help the non profit and charitable sectors and schools
== history ==
although consumer electronics such as the radio have been popular since the 1920s recycling was almost unheard of until the early 1990s at the end of the 1970s the accelerating pace of domestic consumer electronics drastically shortened the lifespan of electronics such as tvs vcrs and audio new innovations appeared more quickly making older equipment considered obsolete increased complexity and sophistication of manufacture made local repair more difficult the retail market shifted gradually but substantially from a few high-value items that were cherished for years and repaired when necessary to short-lived items that were rapidly replaced owing to wear or simply fashion and discarded rather than repaired this was particularly evident in computing highlighted by moore's law in 1988 two severe incidents highlighted the approaching e-waste crisis the cargo barge khian sea was loaded with more than 14,000 tons of toxic ash from pennsylvania which had been refused acceptance in new jersey and the caribbean after sailing for 16 months all the waste was dumped as "topsoil fertiliser" in haiti and in the bay of bengal by november 1988 in june 1988 a large illegal toxic waste dump which had been created by an italian company was discovered this led to the formation of the basel convention to stem the flow of poisonous substances from developed countries in 1989
in 1991 the first electronic waste recycling system was implemented in switzerland beginning with collection of old refrigerators but gradually expanding to cover all devices the organisation siwco handles the programme and is a partnership between it retailers
the first publication to report the recycling of computers and electronic waste was published on the front page of the new york times on april 14 1993 by columnist steve lohr it detailed the work of advanced recovery inc. a small recycler in trying to safely dismantle computers even if most waste was landfilled several other companies emerged in the early 1990s chiefly in europe where national 'take back' laws compelled retailers to use them
after these schemes were set up many countries did not have the capacity to deal with the sheer quantity of e-waste they generated or its hazardous nature they began to export the problem to developing countries without enforced environmental legislation this is cheaper: the cost of recycling of computer monitors in the us is ten times more than in china demand in asia for electronic waste began to grow when scrap yards found they could extract valuable substances such as copper iron silicon nickel and gold during the recycling process
the waste electrical and electronic equipment directive (weee directive) became european law in february 2003 and covers all aspects of recycling all types of appliance this was followed by electronic waste recycling act enshrined in californian law in january 2005
the 2000s saw a large increase in both the sale of electronic devices and their growth as a waste stream: in 2002 e-waste grew faster than any other type of waste in the eu this caused investment in modern automated facilities to cope with the influx of redundant appliances
=== e-cycling ===
"e-cycling" or "e-waste" is an initiative by the united states environmental protection agency (epa) which refers to donations reuse shredding and general collection of used electronics generically the term refers to the process of collecting brokering disassembling repairing and recycling the components or metals contained in used or discarded electronic equipment otherwise known as electronic waste (e-waste) "e-cyclable" items include but are not limited to: televisions computers microwave ovens vacuum cleaners telephones and cellular phones stereos and vcrs and dvds just about anything that has a cord light or takes some kind of battery
investment in e-cycling facilities has been increasing recently due to technologys rapid rate of obsolescence concern over improper methods and opportunities for manufacturers to influence the secondary market (used and reused products) the higher metal prices is also having more recycling taking place the controversy around methods stems from a lack of agreement over preferred outcomes
world markets with lower disposable incomes consider 75% repair and reuse to be valuable enough to justify 25% disposal debate and certification standards may be leading to better definitions though civil law contracts governing the expected process are still vital to any contracted process as poorly defined as "e-cycling"
==== pros of e-cycling ====
the e-waste disposal occurring after processing for reuse repair of equipment and recovery of metals may be unethical or illegal when e-scrap of many kinds is transported overseas to developing countries for such processing it is transported as if to be repaired and/or recycled but after processing the less valuable e-scrap becomes e-waste/pollution there another point of view is that the net environmental cost must be compared to and include the mining refining and extraction with its waste and pollution cost of new products manufactured to replace secondary products which are routinely destroyed in wealthier nations and which cannot economically be repaired in older or obsolete products as an example of negative impacts of e-waste pollution of groundwater has become so serious in areas surrounding chinas landfills that water must be shipped in from 18 miles (29 km) away however mining of new metals can have even broader impacts on groundwater either thorough e-cycling processing domestic processing or overseas repair can help the environment by avoiding pollution such e-cycling can theoretically be a sustainable alternative to disposing of e-waste in landfills in addition e-cycling allows for the reclamation of potential conflict minerals like gold and wolframite which requires less of those to be mined and lessens the potential money flow to militias and other exploitative actors in third-world that profit from mining them
supporters of one form of "required e-cycling" legislation argue that e-cycling saves taxpayers money as the financial responsibility would be shifted from the taxpayer to the manufacturers advocates of more simple legislation (such as landfill bans for e-waste) argue that involving manufacturers does not reduce the cost to consumers if reuse value is lost and the resulting costs are then passed on to consumers in new products particularly affecting markets which can hardly afford new products it is theorized that manufacturers who take part in e-cycling would be motivated to use fewer materials in the production process create longer lasting products and implement safer more efficient recycling systems this theory is sharply disputed and has never been demonstrated
==== criticisms of e-cycling ====
the critics of e-cycling are just as vocal as its advocates according to the reason foundation e-cycling only raises the product and waste management costs of e-waste for consumers and limits innovation on the part of high-tech companies they also believe that e-cycling facilities could unintentionally cause great harm to the environment critics claim that e-waste doesnt occupy a significant portion of total waste according to a european study only 4% of waste is electronic
another opposition to e-cycling is that many problems are posed in disassembly: the process is costly and dangerous because of the heavy metals of which the electronic products are composed and as little as 1-5% of the original cost of materials can be retrieved a final problem that people find is that identity fraud is all too common in regards to the disposal of electronic products as the programs are legislated creating winners and losers among e-cyclers with different locations and processes it may be difficult to distinguish between criticism of e-cycling as a practice and criticism of the specific legislated means proposed to enhance it
==== the fate of e-waste ====
a hefty criticism often lobbed at reuse based recyclers is that people think that they are recycling their electronic waste when in reality it is actually being exported to developing countries like china india and nigeria for instance at free recycling drives "recyclers" may not be staying true to their word but selling e-waste overseas or to parts brokers studies indicate that 50-80% of the 300,000 to 400,000 tons (270,000 to 360,000 tonnes) of e-waste is being sent overseas and that approximately 2 million tons (1.8 million tonnes) per year go to u.s landfills
although not possible in all circumstances the best way to e-cycle is to upcycle e-waste ["on the other hand the electronic products in having babies ame nations" -- please fix] which anti-reuse recyclers depict as primitive reuse-based e-recyclers believe that fair-trade incentives for export markets will lead to better results than domestic shredding the debate between export-friendly e-cycling and increased regulation of that practice was described in
in the european union debate regarding the export of e-waste has resulted in a significant amendment to the weee directive (january 2012) with a view to significantly diminishing the export of weee (untreated e-waste) during debate in strasburg meps stated that "53 million tonnes of weee were generated in 2009 but only 18% collected for recycling" with the remainder being exported or sent to landfill the amendment voted through by a unanimous 95% of representatives removed the re-use (repair and refurbishmet) aspect of the directive and placed more emphasis upon recycling and recovery of precious metals and base metals the changes went further by placing the burden upon registered exporters to prove that used equipment leaving europe was "fit for purpose"
==== policy issues and current efforts ====
currently pieces of government legislation and a number of grassroots efforts have contributed to the growth of e-cycling processes which emphasize decreased exports over increased reuse rates the electronic waste recycling act was passed in california in 2003 it requires that consumers pay an extra fee for certain types of electronics and the collected money be then redistributed to recycling companies that are qualified to properly recycle these products it is the only state that legislates against e-waste through this kind of consumer fee; the other states' efforts focus on producer responsibility laws or waste disposal bans no study has shown that per capita recovery is greater in one type of legislated program (e.g california) versus ordinary waste disposal bans (e.g massachusetts) though recovery has greatly increased in states which use either method
as of september 2006 dell developed the nations first completely free recycling program furthering the responsibilities that manufacturers are taking for e-cycling manufacturers and retailers such as best buy sony and samsung have also set up recycling programs this program does not accept televisions which are the most expensive used electronic item and are unpopular in markets which must deal with televisions when the more valuable computers have been cherry picked
another step being taken is the recyclers pledge of true stewardship sponsored by the computer takeback campaign it has been signed by numerous recyclers promising to recycle responsibly grassroots efforts have also played a big part in this issue as they and other community organizations are being formed to help responsibly recycle e-waste other grassroots campaigns are basel the computer takeback campaign (co-coordinated by the grassroots recycling network) and the silicon valley toxics coalition no study has shown any difference in recycling methods under the pledge and no data is available to demonstrate difference in management between "pledge" and non-pledge companies though it is assumed that the risk of making false claims will prevent pledge companies from wrongly describing their processes
many people believe that the u.s should follow the european union model in regards to its management of e-waste in this program a directive forces manufacturers to take responsibility for e-cycling; it also demands manufacturers' mandatory take-back and places bans on exporting e-waste to developing countries another longer-term solution is for computers to be composed of less dangerous products and many people disagree no data has been provided to show that people who agree with the european model have based their agreement on measured outcomes or experience-based scientific method
== data security ==
e-waste presents a potential security threat to individuals and exporting countries hard drives that are not properly erased before the computer is disposed of can be reopened exposing sensitive information credit card numbers private financial data account information and records of online transactions can be accessed by most willing individuals organized criminals in ghana commonly search the drives for information to use in local scams
government contracts have been discovered on hard drives found in agbogbloshie ghana multi-million dollar agreements from united states security institutions such as the defense intelligence agency (dia) the transportation security administration and homeland security have all resurfaced in agbogbloshie
=== reasons to destroy and recycle securely ===
there are ways to ensure that not only hardware is destroyed but also the private data on the hard drive having customer data stolen lost or misplaced contributes to the ever growing number of people who are affected by identity theft which can cause corporations to lose more than just money the image of a company that holds secure data such as banks law firms pharmaceuticals and credit corporations is also at risk if a company's public image is hurt it could cause consumers to not use their services and could cost millions in business losses and positive public relation campaigns the cost of data breaches "varies widely ranging from $90 to $50,000 (under hipaa's new hitech amendment that came about through the american recovery and revitalization act of 2009) as per customer record depending on whether the breach is low-profile or high-profile and the company is in a non-regulated or highly regulated area such as banking or medical institutions
there is also a major backlash from the consumer if there is a data breach in a company that is supposed to be trusted to protect their private information if an organization has any consumer info on file they must by law (red flags clarification act of 2010) have written information protection policies and procedures in place that serve to combat mitigate and detect vulnerable areas that could result in identity theft the united states department of defense has published a standard to which recyclers and individuals may meet in order to satisfy hipaa requirements
=== secure recycling ===
countries have developed standards aimed at businesses and with the purpose of ensuring the security of data contained in 'confidential' computer media [nist 800-88: us standard for data remenance][hmg cesg is5 baseline & enhanced uk government protocol for data destruction] national association for information destruction (naid) "is the international trade association for companies providing information destruction services suppliers of products equipment and services to destruction companies are also eligible for membership naid's mission is to promote the information destruction industry and the standards and ethics of its member companies." there are companies that follow the guidelines from naid and also meet all federal epa and local dep regulations
the typical process for computer recycling aims to securely destroy hard drives while still recycling the byproduct a typical process for effective computer recycling:
receive hardware for destruction in locked and securely transported vehicles
shred hard drives
separate all aluminum from the waste metals with an electromagnet
collect and securely deliver the shredded remains to an aluminum recycling plant
mold the remaining hard drive parts into aluminum ingots
the asset disposal and information security alliance (adisa) publishes an adisa it asset disposal security standard that covers all phases of the e-waste disposal process from collection to transportation storage and sanitization's at the disposal facility it also conducts periodic audits of disposal vendors
== see also ==
circular economy
computer technology for developing areas
data shredder
data erasure
data remanence
degaussing
digger gold
ecodesign
electronic waste
electronic waste recycling fee
material safety data sheet
polychlorinated biphenyls
retrocomputing
trashware
policy and conventions
basel convention
electronic waste recycling act
restriction of hazardous substances directive (rohs)
china rohs
sustainable electronics initiative (sei)
waste electrical and electronic equipment directive (weee directive)
organisations
basel action network
camara
computers for schools
eday
empower up
free geek
international network for environmental compliance and enforcement
nonprofit technology resources
silicon valley toxics coalition
solving the e-waste problem
world computer exchange
== references ==
== external links ==
european commission circular economy package 2015
recycling from e-waste to resources (un environmental program 2009 120 pages)
weee directive (u.k.)
weee directive (e.c.)
computer donation locations (u.s.)
