in electromagnetic transmission systems particularly those dealing with telecommunications effective radiated power or equivalent radiated power (erp) is a standardized theoretical measurement of radio frequency (rf) power using the si unit watt and is determined by subtracting system losses and adding system gains erp takes into consideration transmitter power output (tpo) transmission line attenuation (electrical resistance and rf radiation) rf connector insertion losses and antenna gain (the combination of antenna efficiency and antenna directivity) but not height above average terrain (haat) erp is typically applied to antenna systems
for a simplified case if an antenna system has 9 dbd gain and 6 db loss its erp is 3 db more than (equal to double) the tpo the use of circular polarization or otherwise splitting equally between horizontal and vertical linear polarization causes a "loss" of 3 db cutting the reported erp in half if full-wavelength spacing is used between antenna elements in an array the erp is increased approximately in proportion to the number of elements when half-wave-spaced elements are used (to reduce rf radiation beneath the radio tower or for other purposes) the increase is less null fill also detracts from the erp by increasing the power in the nulls that form between side lobes stations with beam tilt often have two erps listed: one at the angle of tilt (the main lobe) and another in the standard horizontal plane when only one erp is listed this is usually referring to the power in the main lobe
== fm example ==
for example an fm radio station which advertises that it has 100,000 watts of power actually has 100,000 watts erp and not an actual 100,000-watt transmitter the tpo of such a station typically may be 10,000 to 20,000 watts with a gain factor of 5 to 10 (5 to 10 or 7 to 10 db) in most antenna designs gain is realized primarily by concentrating power toward the horizontal plane and suppressing it at upward and downward angles through the use of phased arrays of antenna elements the distribution of power versus elevation angle is known as the vertical pattern when an antenna is also directional horizontally gain and erp will vary with azimuth (compass direction) rather than the average power over all directions it is the apparent power in the direction of the antenna's main lobe that is quoted as a station's erp (this statement is just another way of stating the definition of erp) this is particularly applicable to the huge erps reported for shortwave broadcasting stations which use very narrow beam widths to get their signals across continents and oceans
=== united states regulatory usage ===
erp for fm radio in the united states is always relative to a theoretical reference half-wave dipole antenna (that is when calculating erp the most direct approach is to work with antenna gain in dbd) to deal with antenna polarization the federal communications commission (fcc) lists erp in both the horizontal and vertical measurements for fm and tv horizontal is the standard for both but if the vertical erp is larger it will be used instead
the maximum erp for us fm broadcasting is usually 100,000 watts (fm zone ii) or 50,000 watts (in the generally more densely populated zones i and i-a) though exact restrictions vary depending on the class of license some stations have been grandfathered in or very infrequently been given a waiver and can exceed normal restrictions
== microwave band issues ==
for most microwave systems a completely non-directional isotropic antenna (one which radiates equally and perfectly well in every direction a physical impossibility) is used as a reference antenna and then one speaks of eirp (effective isotropic radiated power) rather than erp this includes satellite transponders radar and other systems which use microwave dishes and reflectors rather than dipole-style antennas
== lower-frequency issues ==
in the case of mediumwave (am) stations in the united states power limits are set to the actual transmitter power output and erp is not used in normal calculations omnidirectional antennas used by a number of stations radiate the signal equally in all directions directional arrays are used to protect co- or adjacent channel stations usually at night but some run directionally 24 hours while antenna efficiency and ground conductivity are taken into account when designing such an array the fcc database shows the station's transmitter power output not erp
== related terms ==
effective monopole radiated power (emrp) may be used in europe particularly in relation to mediumwave broadcasting antennas this is the same as erp except that a short vertical antenna (i.e a short monopole) is used as the reference antenna instead of a half-wave dipole
equivalent isotropically radiated power (eirp)
== haat ==
the height above average terrain for vhf and higher frequencies is extremely important when considering erp as the signal coverage (broadcast range) produced by a given erp dramatically increases with antenna height because of this it is possible for a station of only a few hundred watts erp to cover more area than a station of a few thousand watts erp if its signal travels above obstructions on the ground
== see also ==
nominal power
list of broadcast station classes
== references ==
