in physics elasticity (from greek "ductible") is the ability of a body to resist a distorting influence or stress and to return to its original size and shape when the stress is removed solid objects will deform when forces are applied on them if the material is elastic the object will return to its initial shape and size when these forces are removed
the physical reasons for elastic behavior can be quite different for different materials in metals the atomic lattice changes size and shape when forces are applied (energy is added to the system) when forces are removed the lattice goes back to the original lower energy state for rubbers and other polymers elasticity is caused by the stretching of polymer chains when forces are applied
perfect elasticity is an approximation of the real world and few materials remain purely elastic even after very small deformations in engineering the amount of elasticity of a material is determined by two types of material parameter the first type of material parameter is called a modulus which measures the amount of force per unit area (stress) needed to achieve a given amount of deformation the units of modulus are pascals (pa) or pounds of force per square inch (psi also lbf/in2) a higher modulus typically indicates that the material is harder to deform the second type of parameter measures the elastic limit the limit can be a stress beyond which the material no longer behaves elastic and deformation of the material will take place if the stress is released the material will elastically return to a permanent deformed shape instead of the original shape
when describing the relative elasticities of two materials both the modulus and the elastic limit have to be considered rubbers typically have a low modulus and tend to stretch a lot (that is they have a high elastic limit) and so appear more elastic than metals (high modulus and low elastic limit) in everyday experience of two rubber materials with the same elastic limit the one with a lower modulus will appear to be more elastic
== overview ==
when an elastic material is deformed due to an external force it experiences internal resistance to the deformation and restores it to its original state if the external force is no longer applied there are various elastic moduli such as young's modulus the shear modulus and the bulk modulus all of which are measures of the inherent elastic properties of a material as a resistance to deformation under an applied load the various moduli apply to different kinds of deformation for instance young's modulus applies to extension/compression of a body whereas the shear modulus applies to its shear
the elasticity of materials is described by a stress-strain curve which shows the relation between stress (the average restorative internal force per unit area) and strain (the relative deformation) for most metals or crystalline materials the curve is linear for small deformations and so the stress-strain relationship can adequately be described by hooke's law and higher-order terms can be ignored however for larger stresses beyond the elastic limit the relation is no longer linear for even higher stresses materials exhibit plastic behavior that is they deform irreversibly and do not return to their original shape after stress is no longer applied for rubber-like materials such as elastomers the gradient of the stress-strain curve increases with stress meaning that rubbers progressively become more difficult to stretch while for most metals the gradient decreases at very high stresses meaning that they progressively become easier to stretch elasticity is not exhibited only by solids; non-newtonian fluids such as viscoelastic fluids will also exhibit elasticity in certain conditions in response to a small rapidly applied and removed strain these fluids may deform and then return to their original shape under larger strains or strains applied for longer periods of time these fluids may start to flow like a viscous liquid
because the elasticity of a material is described in terms of a stress-strain relation it is essential that the terms stress and strain be defined without ambiguity typically two types of relation are considered the first type deals with materials that are elastic only for small strains the second deals with materials that are not limited to small strains clearly the second type of relation is more general
for small strains the measure of stress that is used is the cauchy stress while the measure of strain that is used is the infinitesimal strain tensor; these are related by a linear relation known as (the generalized) hooke's law and the resulting (predicted) material behavior is termed linear elasticity cauchy elastic materials and hypoelastic materials are models that extend hooke's law to allow for the possibility of large rotations
for more general situations any of a number of stress measures can be used provided they are work conjugate to an appropriate finite strain measure i.e. the product of the stress measure and the strain measure should be equal to the internal energy (which does not depend on how the stress or strain are measured) hyperelasticity is the preferred approach for dealing with finite strains and several material models analogous to hooke's law are in use
== linear elasticity ==
as noted above for small deformations most elastic materials such as springs exhibit linear elasticity and can be described by a linear relation between the stress and strain this relationship is known as hooke's law a geometry-dependent version of the idea was first formulated by robert hooke in 1675 as a latin anagram "ceiiinosssttuv" he published the answer in 1678: "ut tensio sic vis" meaning "as the extension so the force" a linear relationship commonly referred to as hooke's law this law can be stated as a relationship between force f and displacement x
where k is a constant known as the rate or spring constant it can also be stated as a relationship between stress and strain :
where e is known as the elastic modulus or young's modulus
although the general proportionality constant between stress and strain in three dimensions is a 4th order tensor systems that exhibit symmetry such as a one-dimensional rod can often be reduced to applications of hooke's law
== finite elasticity ==
the elastic behavior of objects that undergo finite deformations have been described using a number of models such as cauchy elastic material models hypoelastic material models and hyperelastic material models the primary measure that is used to quantity finite strains is the deformation gradient (f) more convenient strain measures can be derived from this primary quantity
=== cauchy elastic materials ===
a material is said to be cauchy-elastic if the cauchy stress tensor is a function of the strain tensor (deformation gradient) f alone:
even though the stress in a cauchy-elastic material depends only on the state of deformation the work done by stresses may depend on the path of deformation therefore a cauchy elastic material has a non-conservative structure and the stress cannot be derived from a scalar "elastic potential" function
=== hypoelastic materials ===
hypoelastic materials are described by a relation of the form
this model is an extension of linear elasticity and suffers from the same form of non-conservative behaviour as cauchy elastic materials
=== hyperelastic materials ===
hyperelastic materials (also called green elastic materials) are conservative models that are derived from a strain energy density function (w) the stress-strain relation for such materials takes the form
== applications ==
linear elasticity is used widely in the design and analysis of structures such as beams plates and shells and sandwich composites this theory is also the basis of much of fracture mechanics
hyperelasticity is primarily used to determine the response of elastomer-based objects such as gaskets and of biological materials such as soft tissues and cell membranes
== factors affecting elasticity ==
for isotropic materials the presence of fractures affects the young and the shear modulus perpendicular to the planes of the cracks which decrease (young's modulus faster than the shear modulus) as the fracture density increases indicating that the presence of cracks makes bodies brittler microscopically the stress-strain relationship of materials is in general governed by the helmholtz free energy a thermodynamic quantity molecules settle in the configuration which minimizes the free energy subject to constraints derived from their structure and depending on whether the energy or the entropy term dominates the free energy materials can broadly be classified as energy-elastic and entropy-elastic as such microscopic factors affecting the free energy such as the equilibrium distance between molecules can affect the elasticity of materials: for instance in inorganic materials as the equilibrium distance between molecules at 0 k increases the bulk modulus decreases the effect of temperature on elasticity is difficult to isolate because there are numerous factors affecting it for instance the bulk modulus of a material is dependent on the form of its lattice its behavior under expansion as well as the vibrations of the molecules all of which are dependent on temperature
== see also ==
elastography
tactile imaging
elastic modulus
linear elasticity
pseudoelasticity
resilience
rubber elasticity
stiffness
ductility
== references ==
