astronomy is the oldest of the natural sciences dating back to antiquity with its origins in the religious mythological cosmological calendrical and astrological beliefs and practices of pre-history: vestiges of these are still found in astrology a discipline long interwoven with public and governmental astronomy and not completely disentangled from it until a few centuries ago in the western world (see astrology and astronomy) in some cultures astronomical data was used for astrological prognostication
ancient astronomers were able to differentiate between stars and planets as stars remain relatively fixed over the centuries while planets will move an appreciable amount during a comparatively short time
== early history ==
early cultures identified celestial objects with gods and spirits they related these objects (and their movements) to phenomena such as rain drought seasons and tides it is generally believed that the first astronomers were priests and that they understood celestial objects and events to be manifestations of the divine hence early astronomy's connection to what is now called astrology ancient structures with possibly astronomical alignments (such as stonehenge) probably fulfilled astronomical religious and social functions
calendars of the world have often been set by observations of the sun and moon (marking the day month and year) and were important to agricultural societies in which the harvest depended on planting at the correct time of year the most common modern calendar is based on the roman calendar which broke the traditional link of the month to the phases of the moon and divided the year into twelve months alternately comprising thirty and thirty-one days in 46 bc julius caesar instigated calendar reform and adopted what is now known as the julian calendar based upon the 36514 day year length originally proposed by the 4th century bc greek astronomer callippus
== prehistoric europe ==
since 1990 our understanding of prehistoric europeans has been radically changed by discoveries of ancient astronomical artifacts throughout europe the artifacts demonstrate that neolithic and bronze age europeans had a sophisticated knowledge of mathematics and astronomy
among the discoveries are:
the warren field calendar in the dee river valley of scotland's aberdeenshire first excavated in 2004 but only in 2013 revealed as a find of huge significance it is to date the worlds oldest known calendar created around 8000 bc and predating all other calendars by some 5,000 years the calendar takes the form of an early mesolithic monument containing a series of 12 pits which appear to help the observer track lunar months by mimicking the phases of the moon it also aligns to sunrise at the winter solstice thus coordinating the solar year with the lunar cycles the monument had been maintained and periodically reshaped perhaps up to hundreds of times in response to shifting solar/lunar cycles over the course of 6,000 years until the calendar fell out of use around 4,000 years ago
goseck circle is located in germany and belongs to the linear pottery culture first discovered in 1991 its significance was only clear after results from archaeological digs became available in 2004 the site is one of hundreds of similar circular enclosures built in a region encompassing austria germany and the czech republic during a 200-year period starting shortly after 5000 bc
the nebra sky disc is a bronze age bronze disc that was buried in germany not far from the goseck circle around 1600 bc it measures about 30 cm diameter with a mass of 2.2 kg and displays a blue-green patina (from oxidization) inlaid with gold symbols found by archeological thieves in 1999 and recovered in switzerland in 2002 it was soon recognized as a spectacular discovery among the most important of the twentieth century investigations revealed that the object had been in use around 400 years before burial (2000 bc) but that its use had been forgotten by the time of burial the inlaid gold depicted the full moon a crescent moon about 4 or 5 days old and the pleiades star cluster in a specific arrangement forming the earliest known depiction of celestial phenomena twelve lunar months pass in 354 days requiring a calendar to insert a leap month every two or three years in order to keep synchronized with the solar year's seasons (making it lunisolar) the earliest known descriptions of this coordination were recorded by the babylonians in 6th or 7th centuries bc over one thousand years later those descriptions verified ancient knowledge of the nebra sky disc's celestial depiction as the precise arrangement needed to judge when to insert the intercalary month into a lunisolar calendar making it an astronomical clock for regulating such a calendar a thousand or more years before any other known method
the kokino site discovered in 2001 sits atop an extinct volcanic cone at an elevation of 1,013 metres (3,323 ft) occupying about 0.5 hectares overlooking the surrounding countryside in the republic of macedonia a bronze age astronomical observatory was constructed there around 1900 bc and continuously served the nearby community that lived there until about 700 bc the central space was used to observe the rising of the sun and full moon three markings locate sunrise at the summer and winter solstices and at the two equinoxes four more give the minimum and maximum declinations of the full moon: in summer and in winter two measure the lengths of lunar months together they reconcile solar and lunar cycles in marking the 235 lunations that occur during 19 solar years regulating a lunar calendar on a platform separate from the central space at lower elevation four stone seats (thrones) were made in north-south alignment together with a trench marker cut in the eastern wall this marker allows the rising sun's light to fall on only the second throne at midsummer (about july 31) it was used for ritual ceremony linking the ruler to the local sun god and also marked the end of the growing season and time for harvest
golden hats of germany france and switzerland dating from 1400-800 bc are associated with the bronze age urnfield culture the golden hats are decorated with a spiral motif of the sun and the moon they were probably a kind of calendar used to calibrate between the lunar and solar calendars modern scholarship has demonstrated that the ornamentation of the gold leaf cones of the schifferstadt type to which the berlin gold hat example belongs represent systematic sequences in terms of number and types of ornaments per band a detailed study of the berlin example which is the only fully preserved one showed that the symbols probably represent a lunisolar calendar the object would have permitted the determination of dates or periods in both lunar and solar calendars
== mesopotamia ==
the origins of western astronomy can be found in mesopotamia the "land between the rivers" tigris and euphrates where the ancient kingdoms of sumer assyria and babylonia were located a form of writing known as cuneiform emerged among the sumerians around 35003000 bc our knowledge of sumerian astronomy is indirect via the earliest babylonian star catalogues dating from about 1200 bc the fact that many star names appear in sumerian suggests a continuity reaching into the early bronze age astral theology which gave planetary gods an important role in mesopotamian mythology and religion began with the sumerians they also used a sexagesimal (base 60) place-value number system which simplified the task of recording very large and very small numbers the modern practice of dividing a circle into 360 degrees of 60 minutes each began with the sumerians for more information see the articles on babylonian numerals and mathematics
classical sources frequently use the term chaldeans for the astronomers of mesopotamia who were in reality priest-scribes specializing in astrology and other forms of divination
the first evidence of recognition that astronomical phenomena are periodic and of the application of mathematics to their prediction is babylonian tablets dating back to the old babylonian period document the application of mathematics to the variation in the length of daylight over a solar year centuries of babylonian observations of celestial phenomena are recorded in the series of cuneiform tablets known as the enma anu enlil the oldest significant astronomical text that we possess is tablet 63 of the enma anu enlil the venus tablet of ammi-saduqa which lists the first and last visible risings of venus over a period of about 21 years and is the earliest evidence that the phenomena of a planet were recognized as periodic the mul.apin contains catalogues of stars and constellations as well as schemes for predicting heliacal risings and the settings of the planets lengths of daylight measured by a water clock gnomon shadows and intercalations the babylonian gu text arranges stars in 'strings' that lie along declination circles and thus measure right-ascensions or time-intervals and also employs the stars of the zenith which are also separated by given right-ascensional differences
a significant increase in the quality and frequency of babylonian observations appeared during the reign of nabonassar (747733 bc) the systematic records of ominous phenomena in babylonian astronomical diaries that began at this time allowed for the discovery of a repeating 18-year cycle of lunar eclipses for example the greek astronomer ptolemy later used nabonassar's reign to fix the beginning of an era since he felt that the earliest usable observations began at this time
the last stages in the development of babylonian astronomy took place during the time of the seleucid empire (32360 bc) in the third century bc astronomers began to use "goal-year texts" to predict the motions of the planets these texts compiled records of past observations to find repeating occurrences of ominous phenomena for each planet about the same time or shortly afterwards astronomers created mathematical models that allowed them to predict these phenomena directly without consulting past records a notable babylonian astronomer from this time was seleucus of seleucia who was a supporter of the heliocentric model
babylonian astronomy was the basis for much of what was done in greek and hellenistic astronomy in classical indian astronomy in sassanian iran in byzantium in syria in islamic astronomy in central asia and in western europe
== india ==
astronomy in the indian subcontinent dates back to the period of indus valley civilization during 3rd millennium bce when it was used to create calendars as the indus valley civilization did not leave behind written documents the oldest extant indian astronomical text is the vedanga jyotisha dating from the vedic period vedanga jyotisha describes rules for tracking the motions of the sun and the moon for the purposes of ritual during 6th century ad astronomy was influenced by the greek and byzantine astronomical traditions
aryabhata (476550) in his magnum opus aryabhatiya (499) propounded a computational system based on a planetary model in which the earth was taken to be spinning on its axis and the periods of the planets were given with respect to the sun he accurately calculated many astronomical constants such as the periods of the planets times of the solar and lunar eclipses and the instantaneous motion of the moon early followers of aryabhata's model included varahamihira brahmagupta and bhaskara ii
astronomy was advanced during the shunga empire and many star catalogues were produced during this time the shunga period is known as the "golden age of astronomy in india" it saw the development of calculations for the motions and places of various planets their rising and setting conjunctions and the calculation of eclipses
bhskara ii (11141185) was the head of the astronomical observatory at ujjain continuing the mathematical tradition of brahmagupta he wrote the siddhantasiromani which consists of two parts: goladhyaya (sphere) and grahaganita (mathematics of the planets) he also calculated the time taken for the earth to orbit the sun to 9 decimal places the buddhist university of nalanda at the time offered formal courses in astronomical studies
other important astronomers from india include madhava of sangamagrama nilakantha somayaji and jyeshtadeva who were members of the kerala school of astronomy and mathematics from the 14th century to the 16th century nilakantha somayaji in his aryabhatiyabhasya a commentary on aryabhata's aryabhatiya developed his own computational system for a partially heliocentric planetary model in which mercury venus mars jupiter and saturn orbit the sun which in turn orbits the earth similar to the tychonic system later proposed by tycho brahe in the late 16th century nilakantha's system however was mathematically more effient than the tychonic system due to correctly taking into account the equation of the centre and latitudinal motion of mercury and venus most astronomers of the kerala school of astronomy and mathematics who followed him accepted his planetary model
== greece and hellenistic world ==
the ancient greeks developed astronomy which they treated as a branch of mathematics to a highly sophisticated level the first geometrical three-dimensional models to explain the apparent motion of the planets were developed in the 4th century bc by eudoxus of cnidus and callippus of cyzicus their models were based on nested homocentric spheres centered upon the earth their younger contemporary heraclides ponticus proposed that the earth rotates around its axis
a different approach to celestial phenomena was taken by natural philosophers such as plato and aristotle they were less concerned with developing mathematical predictive models than with developing an explanation of the reasons for the motions of the cosmos in his timaeus plato described the universe as a spherical body divided into circles carrying the planets and governed according to harmonic intervals by a world soul aristotle drawing on the mathematical model of eudoxus proposed that the universe was made of a complex system of concentric spheres whose circular motions combined to carry the planets around the earth this basic cosmological model prevailed in various forms until the 16th century ad
in the 3rd century bc aristarchus of samos was the first to suggest a heliocentric system although only fragmentary descriptions of his idea survive eratosthenes using the angles of shadows created at widely separated regions estimated the circumference of the earth with great accuracy
greek geometrical astronomy developed away from the model of concentric spheres to employ more complex models in which an eccentric circle would carry around a smaller circle called an epicycle which in turn carried around a planet the first such model is attributed to apollonius of perga and further developments in it were carried out in the 2nd century bc by hipparchus of nicea hipparchus made a number of other contributions including the first measurement of precession and the compilation of the first star catalog in which he proposed our modern system of apparent magnitudes
the antikythera mechanism an ancient greek astronomical observational device for calculating the movements of the sun and the moon possibly the planets dates from about 150100 bc and was the first ancestor of an astronomical computer it was discovered in an ancient shipwreck off the greek island of antikythera between kythera and crete the device became famous for its use of a differential gear previously believed to have been invented in the 16th century ad and the miniaturization and complexity of its parts comparable to a clock made in the 18th century the original mechanism is displayed in the bronze collection of the national archaeological museum of athens accompanied by a replica
depending on the historian's viewpoint the acme or corruption of physical greek astronomy is seen with ptolemy of alexandria who wrote the classic comprehensive presentation of geocentric astronomy the megale syntaxis (great synthesis) better known by its arabic title almagest which had a lasting effect on astronomy up to the renaissance in his planetary hypotheses ptolemy ventured into the realm of cosmology developing a physical model of his geometric system in a universe many times smaller than the more realistic conception of aristarchus of samos four centuries earlier
== egypt ==
the precise orientation of the egyptian pyramids affords a lasting demonstration of the high degree of technical skill in watching the heavens attained in the 3rd millennium bc it has been shown the pyramids were aligned towards the pole star which because of the precession of the equinoxes was at that time thuban a faint star in the constellation of draco evaluation of the site of the temple of amun-re at karnak taking into account the change over time of the obliquity of the ecliptic has shown that the great temple was aligned on the rising of the midwinter sun the length of the corridor down which sunlight would travel would have limited illumination at other times of the year
astronomy played a considerable part in religious matters for fixing the dates of festivals and determining the hours of the night the titles of several temple books are preserved recording the movements and phases of the sun moon and stars the rising of sirius (egyptian: sopdet greek: sothis) at the beginning of the inundation was a particularly important point to fix in the yearly calendar
writing in the roman era clement of alexandria gives some idea of the importance of astronomical observations to the sacred rites:
and after the singer advances the astrologer () with a horologium () in his hand and a palm () the symbols of astrology he must know by heart the hermetic astrological books which are four in number of these one is about the arrangement of the fixed stars that are visible; one on the positions of the sun and moon and five planets; one on the conjunctions and phases of the sun and moon; and one concerns their risings
the astrologer's instruments (horologium and palm) are a plumb line and sighting instrument they have been identified with two inscribed objects in the berlin museum; a short handle from which a plumb line was hung and a palm branch with a sight-slit in the broader end the latter was held close to the eye the former in the other hand perhaps at arms length the "hermetic" books which clement refers to are the egyptian theological texts which probably have nothing to do with hellenistic hermetism
from the tables of stars on the ceiling of the tombs of rameses vi and rameses ix it seems that for fixing the hours of the night a man seated on the ground faced the astrologer in such a position that the line of observation of the pole star passed over the middle of his head on the different days of the year each hour was determined by a fixed star culminating or nearly culminating in it and the position of these stars at the time is given in the tables as in the centre on the left eye on the right shoulder etc according to the texts in founding or rebuilding temples the north axis was determined by the same apparatus and we may conclude that it was the usual one for astronomical observations in careful hands it might give results of a high degree of accuracy
== china ==
the astronomy of east asia began in china solar term was completed in warring states period the knowledge of chinese astronomy was introduced into east asia
astronomy in china has a long history detailed records of astronomical observations were kept from about the 6th century bc until the introduction of western astronomy and the telescope in the 17th century chinese astronomers were able to precisely predict eclipses
much of early chinese astronomy was for the purpose of timekeeping the chinese used a lunisolar calendar but because the cycles of the sun and the moon are different astronomers often prepared new calendars and made observations for that purpose
astrological divination was also an important part of astronomy astronomers took careful note of "guest stars" which suddenly appeared among the fixed stars they were the first to record a supernova in the astrological annals of the houhanshu in 185 a.d also the supernova that created the crab nebula in 1054 is an example of a "guest star" observed by chinese astronomers although it was not recorded by their european contemporaries ancient astronomical records of phenomena like supernovae and comets are sometimes used in modern astronomical studies
the world's first star catalogue was made by gan de a chinese astronomer in the 4th century bc
== mesoamerica ==
maya astronomical codices include detailed tables for calculating phases of the moon the recurrence of eclipses and the appearance and disappearance of venus as morning and evening star the maya based their calendrics in the carefully calculated cycles of the pleiades the sun the moon venus jupiter saturn mars and also they had a precise description of the eclipses as depicted in the dresden codex as well as the ecliptic or zodiac and the milky way was crucial in their cosmology a number of important maya structures are believed to have been oriented toward the extreme risings and settings of venus to the ancient maya venus was the patron of war and many recorded battles are believed to have been timed to the motions of this planet mars is also mentioned in preserved astronomical codices and early mythology
although the maya calendar was not tied to the sun john teeple has proposed that the maya calculated the solar year to somewhat greater accuracy than the gregorian calendar both astronomy and an intricate numerological scheme for the measurement of time were vitally important components of maya religion
== medieval islamic world ==
the arabic and the persian world under islam had become highly cultured and many important works of knowledge from greek astronomy and indian astronomy and persian astronomy were translated into arabic used and stored in libraries throughout the area an important contribution by islamic astronomers was their emphasis on observational astronomy this led to the emergence of the first astronomical observatories in the muslim world by the early 9th century zij star catalogues were produced at these observatories
in the 10th century abd al-rahman al-sufi (azophi) carried out observations on the stars and described their positions magnitudes brightness and colour and drawings for each constellation in his book of fixed stars he also gave the first descriptions and pictures of "a little cloud" now known as the andromeda galaxy he mentions it as lying before the mouth of a big fish an arabic constellation this "cloud" was apparently commonly known to the isfahan astronomers very probably before 905 ad the first recorded mention of the large magellanic cloud was also given by al-sufi in 1006 ali ibn ridwan observed sn 1006 the brightest supernova in recorded history and left a detailed description of the temporary star
in the late 10th century a huge observatory was built near tehran iran by the astronomer abu-mahmud al-khujandi who observed a series of meridian transits of the sun which allowed him to calculate the tilt of the earth's axis relative to the sun he noted that measurements by earlier (indian then greek) astronomers had found higher values for this angle possible evidence that the axial tilt is not constant but was in fact decreasing in 11th-century persia omar khayym compiled many tables and performed a reformation of the calendar that was more accurate than the julian and came close to the gregorian
other muslim advances in astronomy included the collection and correction of previous astronomical data resolving significant problems in the ptolemaic model the development of the universal latitude-independent astrolabe by arzachel the invention of numerous other astronomical instruments ja'far muhammad ibn ms ibn shkir's belief that the heavenly bodies and celestial spheres were subject to the same physical laws as earth the first elaborate experiments related to astronomical phenomena the introduction of exacting empirical observations and experimental techniques and the introduction of empirical testing by ibn al-shatir who produced the first model of lunar motion which matched physical observations
natural philosophy (particularly aristotelian physics) was separated from astronomy by ibn al-haytham (alhazen) in the 11th century by ibn al-shatir in the 14th century and qushji in the 15th century leading to the development of an astronomical physics
== medieval western europe ==
after the significant contributions of greek scholars to the development of astronomy it entered a relatively static era in western europe from the roman era through the 12th century this lack of progress has led some astronomers to assert that nothing happened in western european astronomy during the middle ages recent investigations however have revealed a more complex picture of the study and teaching of astronomy in the period from the 4th to the 16th centuries
western europe entered the middle ages with great difficulties that affected the continent's intellectual production the advanced astronomical treatises of classical antiquity were written in greek and with the decline of knowledge of that language only simplified summaries and practical texts were available for study the most influential writers to pass on this ancient tradition in latin were macrobius pliny martianus capella and calcidius in the 6th century bishop gregory of tours noted that he had learned his astronomy from reading martianus capella and went on to employ this rudimentary astronomy to describe a method by which monks could determine the time of prayer at night by watching the stars
in the 7th century the english monk bede of jarrow published an influential text on the reckoning of time providing churchmen with the practical astronomical knowledge needed to compute the proper date of easter using a procedure called the computus this text remained an important element of the education of clergy from the 7th century until well after the rise of the universities in the 12th century
the range of surviving ancient roman writings on astronomy and the teachings of bede and his followers began to be studied in earnest during the revival of learning sponsored by the emperor charlemagne by the 9th century rudimentary techniques for calculating the position of the planets were circulating in western europe; medieval scholars recognized their flaws but texts describing these techniques continued to be copied reflecting an interest in the motions of the planets and in their astrological significance
building on this astronomical background in the 10th century european scholars such as gerbert of aurillac began to travel to spain and sicily to seek out learning which they had heard existed in the arabic-speaking world there they first encountered various practical astronomical techniques concerning the calendar and timekeeping most notably those dealing with the astrolabe soon scholars such as hermann of reichenau were writing texts in latin on the uses and construction of the astrolabe and others such as walcher of malvern were using the astrolabe to observe the time of eclipses in order to test the validity of computistical tables
by the 12th century scholars were traveling to spain and sicily to seek out more advanced astronomical and astrological texts which they translated into latin from arabic and greek to further enrich the astronomical knowledge of western europe the arrival of these new texts coincided with the rise of the universities in medieval europe in which they soon found a home reflecting the introduction of astronomy into the universities john of sacrobosco wrote a series of influential introductory astronomy textbooks: the sphere a computus a text on the quadrant and another on calculation
in the 14th century nicole oresme later bishop of liseux showed that neither the scriptural texts nor the physical arguments advanced against the movement of the earth were demonstrative and adduced the argument of simplicity for the theory that the earth moves and not the heavens however he concluded "everyone maintains and i think myself that the heavens do move and not the earth: for god hath established the world which shall not be moved." in the 15th century cardinal nicholas of cusa suggested in some of his scientific writings that the earth revolved around the sun and that each star is itself a distant sun he was not however describing a scientifically verifiable theory of the universe
== renaissance period ==
the renaissance came to astronomy with the work of nicolaus copernicus who proposed a heliocentric system in which the planets revolved around the sun and not the earth his de revolutionibus provided a full mathematical discussion of his system using the geometrical techniques that had been traditional in astronomy since before the time of ptolemy his work was later defended expanded upon and modified by galileo galilei and johannes kepler
galileo was considered the father of observational astronomy he was among the first to use a telescope to observe the sky and after constructing a 20x refractor telescope he discovered the four largest moons of jupiter in 1610 this was the first observation of satellites orbiting another planet he also found that our moon had craters and observed (and correctly explained) sunspots galileo noted that venus exhibited a full set of phases resembling lunar phases galileo argued that these observations supported the copernican system and were to some extent incompatible with the favored model of the earth at the center of the universe he may have even observed the planet neptune in 1612 and 1613 over 200 years before it was discovered but it is unclear if he was aware of what he was looking at
== uniting physics and astronomy ==
although the motions of celestial bodies had been qualitatively explained in physical terms since aristotle introduced celestial movers in his metaphysics and a fifth element in his on the heavens johannes kepler was the first to attempt to derive mathematical predictions of celestial motions from assumed physical causes combining his physical insights with the unprecedentedly accurate naked-eye observations made by tycho brahe kepler discovered the three laws of planetary motion that now carry his name
isaac newton developed further ties between physics and astronomy through his law of universal gravitation realising that the same force that attracted objects to the surface of the earth held the moon in orbit around the earth newton was able to explain in one theoretical framework all known gravitational phenomena in his philosophiae naturalis principia mathematica he derived kepler's laws from first principles newton's theoretical developments lay many of the foundations of modern physics
== completing the solar system ==
outside of england newton's theory took some time to become established descartes' theory of vortices held sway in france and huygens leibnitz and cassini accepted only parts of newton's system preferring their own philosophies it wasn't until voltaire published a popular account in 1738 that the tide changed in 1748 the french academy of sciences offered a reward for solving the perturbations of jupiter and saturn which was eventually solved by euler and lagrange laplace completed the theory of the planets towards the end of the century
edmund halley succeeded flamsteed as astronomer royal in england and succeeded in predicting the return in 1758 of the comet that bears his name sir william herschel found the first new planet uranus to be observed in modern times in 1781 the gap between the planets mars and jupiter disclosed by the titiusbode law was filled by the discovery of the asteroids ceres and pallas in 1801 with many more following
at first astronomical thought in america was based on aristotelian philosophy but interest in the new astronomy began to appear in almanacs as early as 1659
== modern astronomy ==
in the 19th century it was discovered that when decomposing the light from the sun a multitude of spectral lines were observed (regions where there was less or no light) experiments with hot gases showed that the same lines could be observed in the spectra of gases specific lines corresponding to unique elements it was proved that the chemical elements found in the sun (chiefly hydrogen and helium) were also found on earth during the 20th century spectroscopy (the study of these lines) advanced especially because of the advent of quantum physics that was necessary to understand the observations
although in previous centuries noted astronomers were exclusively male at the turn of the 20th century women began to play a role in the great discoveries in this period prior to modern computers women at the united states naval observatory (usno) harvard university and other astronomy research institutions began to be hired as human "computers," who performed the tedious calculations while scientists performed research requiring more background knowledge [1] a number of discoveries in this period were originally noted by the women "computers" and reported to their supervisors for example at the harvard observatory henrietta swan leavitt discovered the cepheid variable star period-luminosity relation which she further developed into a method of measuring distance outside of our solar system annie jump cannon also at harvard organized the stellar spectral types according to stellar temperature in 1847 maria mitchell discovered a comet using a telescope according to lewis d eigen cannon alone "in only 4 years discovered and catalogued more stars than all the men in history put together." most of these women received little or no recognition during their lives due to their lower professional standing in the field of astronomy although their discoveries and methods are taught in classrooms around the world few students of astronomy can attribute the works to their authors or have any idea that there were active female astronomers at the end of the 19th century
== cosmology and the expansion of the universe ==
most of our current knowledge was gained during the 20th century with the help of the use of photography fainter objects were observed our sun was found to be part of a galaxy made up of more than 1010 stars (10 billion stars) the existence of other galaxies one of the matters of the great debate was settled by edwin hubble who identified the andromeda nebula as a different galaxy and many others at large distances and receding moving away from our galaxy
physical cosmology a discipline that has a large intersection with astronomy made huge advances during the 20th century with the model of the hot big bang heavily supported by the evidence provided by astronomy and physics such as the redshifts of very distant galaxies and radio sources the cosmic microwave background radiation hubble's law and cosmological abundances of elements
== new windows into the cosmos open ==
in the 19th century scientists began discovering forms of light which were invisible to the naked eye: x-rays gamma rays radio waves microwaves ultraviolet radiation and infrared radiation this had a major impact on astronomy spawning the fields of infrared astronomy radio astronomy x-ray astronomy and finally gamma-ray astronomy with the advent of spectroscopy it was proven that other stars were similar to our own sun but with a range of temperatures masses and sizes the existence of our galaxy the milky way as a separate group of stars was only proven in the 20th century along with the existence of "external" galaxies and soon after the expansion of the universe seen in the recession of most galaxies from us
== see also ==
== notes ==
== historians of astronomy ==
scholars past willy hartner otto neugebauer b l van der waerden
scholars present stephen g brush stephen j dick owen gingerich bruce stephenson michael hoskin alexander r jones curtis a wilson
astronomer-historians j b j delambre j l e dreyer donald osterbrock carl sagan f richard stephenson
== references ==
aaboe asger episodes from the early history of astronomy springer-verlag 2001 isbn 0-387-95136-9
aveni anthony f skywatchers of ancient mexico university of texas press 1980 isbn 0-292-77557-1
dreyer j l e history of astronomy from thales to kepler 2nd edition dover publications 1953 (revised reprint of history of the planetary systems from thales to kepler 1906)
eastwood bruce the revival of planetary astronomy in carolingian and post-carolingian europe variorum collected studies series cs 279 ashgate 2002 isbn 0-86078-868-7
evans james (1998) the history and practice of ancient astronomy oxford university press isbn 0-19-509539-1 
antoine gautier l'ge d'or de l'astronomie ottomane in l'astronomie (monthly magazine created by camille flammarion in 1882) december 2005 volume 119
hodson f r (ed.) the place of astronomy in the ancient world: a joint symposium of the royal society and the british academy oxford university press 1974 isbn 0-19-725944-8
hoskin michael the history of astronomy: a very short introduction oxford university press isbn 0-19-280306-9
mccluskey stephen c astronomies and cultures in early medieval europe cambridge university press 1998 isbn 0-521-77852-2
pannekoek anton a history of astronomy dover publications 1989
pedersen olaf early physics and astronomy: a historical introduction revised edition cambridge university press 1993 isbn 0-521-40899-7
pingree david (1998) "legacies in astronomy and celestial omens" in dalley stephanie the legacy of mesopotamia oxford university press pp 125137 isbn 0-19-814946-8 
rochberg francesca (2004) the heavenly writing: divination horoscopy and astronomy in mesopotamian culture cambridge university press 
stephenson bruce kepler's physical astronomy studies in the history of mathematics and physical sciences 13 new york: springer 1987 isbn 0-387-96541-6
walker christopher (ed.) astronomy before the telescope british museum press 1996 isbn 0-7141-1746-3
== further reading ==
neugebauer otto (1969) [1957] the exact sciences in antiquity (2 ed.) dover publications isbn 978-0-486-22332-2
revello manuela (2013) "sole luna ed eclissi in omero" in technai 4 pp 13-32 pisa-roma: fabrizio serra editore
== refereed journals ==
dio: the international journal of scientific history
journal for the history of astronomy
journal of astronomical history and heritage
== external links ==
unesco-iau portal to the heritage of astronomy
astronomiae historia / history of astronomy at the astronomical institutes of bonn university
commission 41 (history of astronomy) of the international astronomical union (iau)
society for the history of astronomy
mayan astronomy
caelum antiquum: ancient astronomy and astrology at lacuscurtius
starry messenger: observing the heavens in the age of galileo - an exhibition from the beinecke rare book and manuscript library at yale university
mesoamerican archaeoastronomy
"the book of instruction on deviant planes and simple planes" is a manuscript in arabic that dates back to 1740 and talks about practical astronomy with diagrams
more information on women astronomers
