lactic acid fermentation is a biological process by which glucose and other six-carbon sugars (also disaccharides of six-carbon sugars e.g sucrose or lactose) are converted into cellular energy and the metabolite lactate it is an anaerobic fermentation reaction that occurs in some bacteria and animal cells such as muscle cells
if oxygen is present in the cell many organisms will bypass fermentation and undergo cellular respiration; however facultative anaerobic organisms will both ferment and undergo respiration in the presence of oxygen sometimes even when oxygen is present and aerobic metabolism is happening in the mitochondria if pyruvate is building up faster than it can be metabolized the fermentation will happen anyway
lactate dehydrogenase catalyzes the interconversion of pyruvate and lactate with concomitant interconversion of nadh and nad+
in homolactic fermentation one molecule of glucose is ultimately converted to two molecules of lactic acid heterolactic fermentation in contrast yields carbon dioxide and ethanol in addition to lactic acid in a process called the phosphoketolase pathway
== applications ==
lactic acid fermentation is used in many areas of the world to produce foods that cannot be produced through other methods the most commercially important genus of lactic acid-fermenting bacteria is lactobacillus though other bacteria and even yeast are sometimes used two of the most common applications of lactic acid fermentation are in the production of yogurt and sauerkraut
=== kimchi ===
kimchi also uses lactic acid fermentation
=== sauerkraut ===
lactic acid fermentation is also used in the production of sauerkraut the main type of bacteria used in the production of sauerkraut is of the genus leuconostoc
as in yogurt when the acidity rises due to lactic acid-fermenting organisms many other pathogenic microorganisms are killed the bacteria produce lactic acid as well as simple alcohols and other hydrocarbons these may then combine to form esters contributing to the unique flavor of sauerkraut
=== sour beer ===
lactic acid is a component in the production of sour beers including lambics and berliner weisses
=== yogurt ===
the main method of producing yogurt is through the lactic acid fermentation of milk with harmless bacteria the primary bacteria used are typically lactobacillus bulgaricus and streptococcus thermophilus and united states law requires all yogurts to contain these two cultures (though others may be added as probiotic cultures) these bacteria produce lactic acid in the milk culture decreasing its ph and causing it to congeal the bacteria also produce compounds that give yogurt its distinctive flavor an additional effect of the lowered ph is the incompatibility of the acidic environment with many other types of harmful bacteria
for a probiotic yogurt additional types of bacteria such as lactobacillus acidophilus are also added to the culture
== notes and references ==
