in metrology measurement uncertainty is a non-negative parameter characterizing the dispersion of the values attributed to a measured quantity all measurements are subject to uncertainty and a measurement result is complete only when it is accompanied by a statement of the associated uncertainty by international agreement this uncertainty has a probabilistic basis and reflects incomplete knowledge of the quantity value
the measurement uncertainty is often taken as the standard deviation of a state-of-knowledge probability distribution over the possible values that could be attributed to a measured quantity relative uncertainty is the measurement uncertainty relative to the magnitude of a particular single choice for the value for the measured quantity when this choice is nonzero this particular single choice is usually called the measured value which may be optimal in some well-defined sense (e.g. a mean median or mode) thus the relative measurement uncertainty is the measurement uncertainty divided by the absolute value of the measured value when the measured value is not zero
== background ==
the purpose of measurement is to provide information about a quantity of interest a measurand for example the measurand might be the size of a cylindrical feature the volume of a vessel the potential difference between the terminals of a battery or the mass concentration of lead in a flask of water
no measurement is exact when a quantity is measured the outcome depends on the measuring system the measurement procedure the skill of the operator the environment and other effects even if the quantity were to be measured several times in the same way and in the same circumstances a different measured value would in general be obtained each time assuming the measuring system has sufficient resolution to distinguish between the values
the dispersion of the measured values would relate to how well the measurement is performed their average would provide an estimate of the true value of the quantity that generally would be more reliable than an individual measured value the dispersion and the number of measured values would provide information relating to the average value as an estimate of the true value however this information would not generally be adequate
the measuring system may provide measured values that are not dispersed about the true value but about some value offset from it take a domestic bathroom scale suppose it is not set to show zero when there is nobody on the scale but to show some value offset from zero then no matter how many times the person's mass were re-measured the effect of this offset would be inherently present in the average of the values
measurement uncertainty has important economic consequences for calibration and measurement activities in calibration reports the magnitude of the uncertainty is often taken as an indication of the quality of the laboratory and smaller uncertainty values generally are of higher value and of higher cost the american society of mechanical engineers (asme) has produced a suite of standards addressing various aspects of measurement uncertainty asme b89.7.3.1 guidelines for decision rules in determining conformance to specifications addresses the role of measurement uncertainty when accepting or rejecting products based on a measurement result and a product specification asme b89.7.3.2 guidelines for the evaluation of dimensional measurement uncertainty provides a simplified approach (relative to the gum) to the evaluation of dimensional measurement uncertainty asme b89.7.3.3 guidelines for assessing the reliability of dimensional measurement uncertainty statements examines how to resolve disagreements over the magnitude of the measurement uncertainty statement asme b89.7.4 measurement uncertainty and conformance testing: risk analysis provides guidance on the risks involved in any product acceptance/rejection decision
the "guide to the expression of uncertainty in measurement" commonly known as the gum is the definitive document on this subject the gum has been adopted by all major national measurement institutes (nmis) by international laboratory accreditation standards such as iso/iec 17025 general requirements for the competence of testing and calibration laboratories which is required for international laboratory accreditation and employed in most modern national and international documentary standards on measurement methods and technology see joint committee for guides in metrology
== indirect measurement ==
the above discussion concerns the direct measurement of a quantity which incidentally occurs rarely for example the bathroom scale may convert a measured extension of a spring into an estimate of the measurand the mass of the person on the scale the particular relationship between extension and mass is determined by the calibration of the scale a measurement model converts a quantity value into the corresponding value of the measurand
there are many types of measurement in practice and therefore many models a simple measurement model (for example for a scale where the mass is proportional to the extension of the spring) might be sufficient for everyday domestic use alternatively a more sophisticated model of a weighing involving additional effects such as air buoyancy is capable of delivering better results for industrial or scientific purposes in general there are often several different quantities for example temperature humidity and displacement that contribute to the definition of the measurand and that need to be measured
correction terms should be included in the measurement model when the conditions of measurement are not exactly as stipulated these terms correspond to systematic errors given an estimate of a correction term the relevant quantity should be corrected by this estimate there will be an uncertainty associated with the estimate even if the estimate is zero as is often the case instances of systematic errors arise in height measurement when the alignment of the measuring instrument is not perfectly vertical and the ambient temperature is different from that prescribed neither the alignment of the instrument nor the ambient temperature is specified exactly but information concerning these effects is available for example the lack of alignment is at most 0.001 and the ambient temperature at the time of measurement differs from that stipulated by at most 2 c
as well as raw data representing measured values there is another form of data that is frequently needed in a measurement model some such data relate to quantities representing physical constants each of which is known imperfectly examples are material constants such as modulus of elasticity and specific heat there are often other relevant data given in reference books calibration certificates etc. regarded as estimates of further quantities
the items required by a measurement model to define a measurand are known as input quantities in a measurement model the model is often referred to as a functional relationship the output quantity in a measurement model is the measurand
formally the output quantity denoted by  about which information is required is often related to input quantities denoted by  about which information is available by a measurement model in the form of
where is known as the measurement function a general expression for a measurement model is
it is taken that a procedure exists for calculating given  and that is uniquely defined by this equation
== propagation of distributions ==
the true values of the input quantities are unknown in the gum approach are characterized by probability distributions and treated mathematically as random variables these distributions describe the respective probabilities of their true values lying in different intervals and are assigned based on available knowledge concerning  sometimes some or all of are interrelated and the relevant distributions which are known as joint apply to these quantities taken together
consider estimates  respectively of the input quantities  obtained from certificates and reports manufacturers' specifications the analysis of measurement data and so on the probability distributions characterizing are chosen such that the estimates  respectively are the expectations of  moreover for the th input quantity consider a so-called standard uncertainty given the symbol  defined as the standard deviation of the input quantity  this standard uncertainty is said to be associated with the (corresponding) estimate 
the use of available knowledge to establish a probability distribution to characterize each quantity of interest applies to the and also to  in the latter case the characterizing probability distribution for is determined by the measurement model together with the probability distributions for the  the determination of the probability distribution for from this information is known as the propagation of distributions
the figure below depicts a measurement model in the case where and are each characterized by a (different) rectangular or uniform probability distribution has a symmetric trapezoidal probability distribution in this case
once the input quantities have been characterized by appropriate probability distributions and the measurement model has been developed the probability distribution for the measurand is fully specified in terms of this information in particular the expectation of is used as the estimate of  and the standard deviation of as the standard uncertainty associated with this estimate
often an interval containing with a specified probability is required such an interval a coverage interval can be deduced from the probability distribution for  the specified probability is known as the coverage probability for a given coverage probability there is more than one coverage interval the probabilistically symmetric coverage interval is an interval for which the probabilities (summing to one minus the coverage probability) of a value to the left and the right of the interval are equal the shortest coverage interval is an interval for which the length is least over all coverage intervals having the same coverage probability
prior knowledge about the true value of the output quantity can also be considered for the domestic bathroom scale the fact that the person's mass is positive and that it is the mass of a person rather than that of a motor car that is being measured both constitute prior knowledge about the possible values of the measurand in this example such additional information can be used to provide a probability distribution for that can give a smaller standard deviation for and hence a smaller standard uncertainty associated with the estimate of 
== type a and type b evaluation of uncertainty ==
knowledge about an input quantity is inferred from repeated measured values ("type a evaluation of uncertainty") or scientific judgement or other information concerning the possible values of the quantity ("type b evaluation of uncertainty")
in type a evaluations of measurement uncertainty the assumption is often made that the distribution best describing an input quantity given repeated measured values of it (obtained independently) is a gaussian distribution then has expectation equal to the average measured value and standard deviation equal to the standard deviation of the average when the uncertainty is evaluated from a small number of measured values (regarded as instances of a quantity characterized by a gaussian distribution) the corresponding distribution can be taken as a -distribution other considerations apply when the measured values are not obtained independently
for a type b evaluation of uncertainty often the only available information is that lies in a specified interval [] in such a case knowledge of the quantity can be characterized by a rectangular probability distribution with limits and  if different information were available a probability distribution consistent with that information would be used
== sensitivity coefficients ==
sensitivity coefficients describe how the estimate of would be influenced by small changes in the estimates of the input quantities  for the measurement model  the sensitivity coefficient equals the partial derivative of first order of with respect to evaluated at   etc for a linear measurement model
with independent a change in equal to would give a change in  this statement would generally be approximate for measurement models  the relative magnitudes of the terms are useful in assessing the respective contributions from the input quantities to the standard uncertainty associated with 
the standard uncertainty associated with the estimate of the output quantity is not given by the sum of the  but these terms combined in quadrature namely by [an expression that is generally approximate for measurement models ]
which is known as the law of propagation of uncertainty
when the input quantities contain dependencies the above formula is augmented by terms containing covariances which may increase or decrease 
== uncertainty evaluation ==
the main stages of uncertainty evaluation constitute formulation and calculation the latter consisting of propagation and summarizing the formulation stage constitutes
defining the output quantity (the measurand)
identifying the input quantities on which depends
developing a measurement model relating to the input quantities and
on the basis of available knowledge assigning probability distributions gaussian rectangular etc to the input quantities (or a joint probability distribution to those input quantities that are not independent)
the calculation stage consists of propagating the probability distributions for the input quantities through the measurement model to obtain the probability distribution for the output quantity  and summarizing by using this distribution to obtain
the expectation of  taken as an estimate of 
the standard deviation of  taken as the standard uncertainty associated with  and
a coverage interval containing with a specified coverage probability
the propagation stage of uncertainty evaluation is known as the propagation of distributions various approaches for which are available including
the gum uncertainty framework constituting the application of the law of propagation of uncertainty and the characterization of the output quantity by a gaussian or a -distribution
analytic methods in which mathematical analysis is used to derive an algebraic form for the probability distribution for  and
a monte carlo method in which an approximation to the distribution function for is established numerically by making random draws from the probability distributions for the input quantities and evaluating the model at the resulting values
for any particular uncertainty evaluation problem approach 1) 2) or 3) (or some other approach) is used 1) being generally approximate 2) exact and 3) providing a solution with a numerical accuracy that can be controlled
=== models with any number of output quantities ===
when the measurement model is multivariate that is it has any number of output quantities the above concepts can be extended the output quantities are now described by a joint probability distribution the coverage interval becomes a coverage region the law of propagation of uncertainty has a natural generalization and a calculation procedure that implements a multivariate monte carlo method is available
== alternative perspective ==
most of this article represents the most common view of measurement uncertainty which assumes that random variables are proper mathematical models for uncertain quantities and simple probability distributions are sufficient for representing all forms of measurement uncertainties in some situations however a mathematical interval rather than a probability distribution might be a better model of uncertainty this may include situations involving periodic measurements binned data values censoring detection limits or plus-minus ranges of measurements where no particular probability distribution seems justified or where one cannot assume that the errors among individual measurements are completely independent
a more robust representation of measurement uncertainty in such cases can be fashioned from intervals an interval [a,b] is different from a rectangular or uniform probability distribution over the same range in that the latter suggests that the true value lies inside the right half of the range [(a + b)/2 b] with probability one half and within any subinterval of [a,b] with probability equal to the width of the subinterval divided by b a the interval makes no such claims except simply that the measurement lies somewhere within the interval distributions of such measurement intervals can be summarized as probability boxes and dempstershafer structures over the real numbers which incorporate both aleatoric and epistemic uncertainties
== see also ==
== references ==
== further reading ==
jcgm 200:2008 international vocabulary of metrology basic and general concepts and associated terms 3rd edition joint committee for guides in metrology
iso 3534-1:2006 statistics vocabulary and symbols part 1: general statistical terms and terms used in probability iso
jcgm 106:2012 evaluation of measurement data the role of measurement uncertainty in conformity assessment joint committee for guides in metrology
cox m g. and harris p m ssfm best practice guide no 6 uncertainty evaluation technical report dem-es-011 national physical laboratory 2006
cox m g. and harris p m  software specifications for uncertainty evaluation technical report dem-es-010 national physical laboratory 2006
grabe m  measurement uncertainties in science and technology springer 2005
grabe m generalized gaussian error calculus springer 2010
dietrich c f uncertainty calibration and probability adam hilger bristol uk 1991
nist uncertainty of measurement results
bich w. cox m g. and harris p m evolution of the "guide to the expression of uncertainty in measurement" metrologia 43(4):s161s166 2006
ea expression of the uncertainty of measurement in calibration technical report ea-4/02 european co-operation for accreditation 1999
elster c. and toman b bayesian uncertainty analysis under prior ignorance of the measurand versus analysis using supplement 1 to the guide: a comparison metrologia 46:261266 2009
ferson s. kreinovich v. hajagos j. oberkampf w. and ginzburg l 2007 "experimental uncertainty estimation and statistics for data having interval uncertainty" sand2007-0939
lira. i evaluating the uncertainty of measurement fundamentals and practical guidance institute of physics bristol uk 2002
majcen n. taylor p (editors) practical examples on traceability measurement uncertainty and validation in chemistry vol 1 2010; isbn 978-92-79-12021-3
ukas the expression of uncertainty in emc testing technical report lab34 united kingdom accreditation service 2002
ukas m3003 the expression of uncertainty and confidence in measurement (edition 3 november 2012) ukas
nplunc
estimate of temperature and its uncertainty in small systems 2011
asme ptc 19.1 test uncertainty new york: the american society of mechanical engineers; 2005
introduction to evaluating uncertainty of measurement
da silva r.b. bulska e. godlewska-zylkiewicz b. hedrich m. majcen n. magnusson b. marincic s. papadakis i. patriarca m. vassileva e. taylor p. analytical measurement: measurement uncertainty and statistics;isbn 978-92-79-23070-7 2012
arnaut l r measurement uncertainty in reverberation chambers i sample statistics technical report tqe 2 2nd ed. national physical laboratory 2008
estimation of measurement uncertainty in chemical analysis (analytical chemistry) on-line course created by i leito l jalukse and i helm university of tartu 2013
