in chemistry the molar mass m is a physical property defined as the mass of a given substance (chemical element or chemical compound) divided by its amount of substance the base si unit for molar mass is kg/mol however for historical reasons molar masses are almost always expressed in g/mol
as an example the molar mass of water: m(h2o) 699818000000000000018 g/mol
== molar masses of elementsedit ==
the molar mass of atoms of an element is given by the atomic mass of the element multiplied by the molar mass constant m
u = 1103 kg/mol = 1 g/mol:
m(h) = 1.007 97(7) 1 g/mol = 1.007 97(7) g/mol
m(s) = 32.065(5) 1 g/mol = 32.065(5) g/mol
m(cl) = 35.453(2) 1 g/mol = 35.453(2) g/mol
m(fe) = 55.845(2) 1 g/mol = 55.845(2) g/mol
multiplying by the molar mass constant ensures that the calculation is dimensionally correct: atomic weights are dimensionless quantities (i.e. pure numbers) whereas molar masses have units (in this case grams/mole)
some elements are usually encountered as molecules e.g hydrogen (h
2) sulfur (s
8) chlorine (cl
2) the molar mass of molecules of these elements is the molar mass of the atoms multiplied by the number of atoms in each molecule:
m(h
2) = 2 1.007 97(7) 1 g/mol = 2.015 88(14) g/mol
m(s
8) = 8 32.065(5) 1 g/mol = 256.52(4) g/mol
m(cl
2) = 2 35.453(2) 1 g/mol = 70.906(4) g/mol
== molar masses of compoundsedit ==
the molar mass of a compound is given by the sum of the standard atomic weight of the atoms which form the compound multiplied by the molar mass constant m
u:
m(nacl) = [22.989 769 28(2) + 35.453(2)] 1 g/mol = 58.443(2) g/mol
m(c
12h
22o
11) = ([12 12.0107(8)] + [22 1.007 94(7)] + [11 15.9994(3)]) 1 g/mol = 342.297(14) g/mol
an average molar mass may be defined for mixtures of compounds this is particularly important in polymer science where different polymer molecules may contain different numbers of monomer units (non-uniform polymers)
== average molar mass of mixturesedit ==
the average molar mass of mixtures can be calculated from the mole fractions of the components and their molar masses :
it can also be calculated from the mass fractions of the components:
as an example the average molar mass of dry air is 28.97 g/mol
== related quantitiesedit ==
molar mass is closely related to the relative molar mass (m
r) of a compound to the older term formula weight and to the standard atomic masses of its constituent elements however it should be distinguished from the molecular mass (also known as molecular weight) which is the mass of one molecule (of any single isotopic composition) and is not directly related to the atomic mass the mass of one atom (of any single isotope) the dalton symbol da is also sometimes used as a unit of molar mass especially in biochemistry with the definition 1 da = 1 g/mol despite the fact that it is strictly a unit of mass (1 da = 1 u = 1.660 538 921(73)1027 kg)
molecular weight (m.w.) and formula weight (f.w.) are older terms for what is now more correctly called the relative molar mass (m
r) this is a dimensionless quantity (i.e. a pure number without units) equal to the molar mass divided by the molar mass constant
=== molecular massedit ===
the molecular mass (m) is the mass of a given molecule: it is measured in atomic mass units (u) or daltons (da) different molecules of the same compound may have different molecular masses because they contain different isotopes of an element the molar mass is a measure of the average molecular mass of all the molecules in a sample and is usually the more appropriate measure when dealing with macroscopic (weigh-able) quantities of a substance
molecular masses are calculated from the relative atomic masses of each nuclide while molar masses are calculated from the atomic mass of each element the atomic mass takes into account the isotopic distribution of the element in a given sample (usually assumed to be "normal") for example water has a molar mass of 18.0153(3) g/mol but individual water molecules have molecular masses which range between 18.010 564 6863(15) u (1h
216o) and 22.027 7364(9) u (d
218o)
the distinction between molar mass and molecular mass is important because relative molecular masses can be measured directly by mass spectrometry often to a precision of a few parts per million this is accurate enough to directly determine the chemical formula of a molecule
=== dna synthesis usageedit ===
the term formula weight (f.w.) has a specific meaning when used in the context of dna synthesis: whereas an individual phosphoramidite nucleobase to be added to a dna polymer has protecting groups and has its molecular weight quoted including these groups the amount of molecular weight that is ultimately added by this nucleobase to a dna polymer is referred to as the nucleobase's formula weight (i.e. the molecular weight of this nucleobase within the dna polymer minus protecting groups)
== precision and uncertaintiesedit ==
the precision to which a molar mass is known depends on the precision of the atomic masses from which it was calculated most atomic masses are known to a precision of at least one part in ten-thousand often much better (the atomic mass of lithium is a notable and serious exception) this is adequate for almost all normal uses in chemistry: it is more precise than most chemical analyses and exceeds the purity of most laboratory reagents
the precision of atomic masses and hence of molar masses is limited by the knowledge of the isotopic distribution of the element if a more accurate value of the molar mass is required it is necessary to determine the isotopic distribution of the sample in question which may be different from the standard distribution used to calculate the standard atomic mass the isotopic distributions of the different elements in a sample are not necessarily independent of one another: for example a sample which has been distilled will be enriched in the lighter isotopes of all the elements present this complicates the calculation of the standard uncertainty in the molar mass
a useful convention for normal laboratory work is to quote molar masses to two decimal places for all calculations this is more accurate than is usually required but avoids rounding errors during calculations when the molar mass is greater than 1000 g/mol it is rarely appropriate to use more than one decimal place these conventions are followed in most tabulated values of molar masses
== measurementedit ==
molar masses are almost never measured directly they may be calculated from standard atomic masses and are often listed in chemical catalogues and on safety data sheets (sds) molar masses typically vary between:
1238 g/mol for atoms of naturally occurring elements;
101000 g/mol for simple chemical compounds;
10005,000,000 g/mol for polymers proteins dna fragments etc
while molar masses are almost always in practice calculated from atomic weights they can also be measured in certain cases such measurements are much less precise than modern mass spectrometric measurements of atomic weights and molecular masses and are of mostly historical interest all of the procedures rely on colligative properties and any dissociation of the compound must be taken into account
=== vapour densityedit ===
the measurement of molar mass by vapour density relies on the principle first enunciated by amedeo avogadro that equal volumes of gases under identical conditions contain equal numbers of particles this principle is included in the ideal gas equation:
where n is the amount of substance the vapour density () is given by
combining these two equations gives an expression for the molar mass in terms of the vapour density for conditions of known pressure and temperature
=== freezing-point depressionedit ===
the freezing point of a solution is lower than that of the pure solvent and the freezing-point depression (t) is directly proportional to the amount concentration for dilute solutions when the composition is expressed as a molality the proportionality constant is known as the cryoscopic constant (k
f) and is characteristic for each solvent if w represents the mass fraction of the solute in solution and assuming no dissociation of the solute the molar mass is given by
=== boiling-point elevationedit ===
the boiling point of a solution of an involatile solute is higher than that of the pure solvent and the boiling-point elevation (t) is directly proportional to the amount concentration for dilute solutions when the composition is expressed as a molality the proportionality constant is known as the ebullioscopic constant (k
b) and is characteristic for each solvent if w represents the mass fraction of the solute in solution and assuming no dissociation of the solute the molar mass is given by
== referencesedit ==
== external linksedit ==
html5 molar mass calculator web and mobile application
online molar mass calculator with the uncertainty of m and all the calculations shown
molar mass calculator online molar mass and elemental composition calculator
stoichiometry add-in for microsoft excel for calculation of molecular weights reaction coefficients and stoichiometry it includes both average atomic weights and isotopic weights
