the pauli exclusion principle is the quantum mechanical principle that states that two identical fermions (particles with half-integer spin) cannot occupy the same quantum state simultaneously in the case of electrons it can be stated as follows: it is impossible for two electrons of a poly-electron atom to have the same values of the four quantum numbers: n the principal quantum number  the angular momentum quantum number m the magnetic quantum number and ms the spin quantum number for two electrons residing in the same orbital n  and m are the same so ms the spin must be different and thus the electrons have opposite half-integer spins 1/2 and -1/2 this principle was formulated by austrian physicist wolfgang pauli in 1925
a more rigorous statement is that the total wave function for two identical fermions is antisymmetric with respect to exchange of the particles this means that the wave function changes its sign if the space and spin co-ordinates of any two particles are interchanged
particles with an integer spin or bosons are not subject to the pauli exclusion principle: any number of identical bosons can occupy the same quantum state as with for instance photons produced by a laser and boseeinstein condensate
== overviewedit ==
the pauli exclusion principle governs the behavior of all fermions (particles with "half-integer spin") while bosons (particles with "integer spin") are not subject to it fermions include elementary particles such as quarks (the constituent particles of protons and neutrons) electrons and neutrinos in addition protons and neutrons (subatomic particles composed from three quarks) and some atoms are fermions and are therefore subject to the pauli exclusion principle as well atoms can have different overall "spin" which determines whether they are fermions or bosons for example helium-3 has spin 1/2 and is therefore a fermion in contrast to helium-4 which has spin 0 and is a boson as such the pauli exclusion principle underpins many properties of everyday matter from its large-scale stability to the chemical behavior of atoms
"half-integer spin" means that the intrinsic angular momentum value of fermions is (reduced planck's constant) times a half-integer (1/2 3/2 5/2 etc.) in the theory of quantum mechanics fermions are described by antisymmetric states in contrast particles with integer spin (called bosons) have symmetric wave functions; unlike fermions they may share the same quantum states bosons include the photon the cooper pairs which are responsible for superconductivity and the w and z bosons (fermions take their name from the fermidirac statistical distribution that they obey and bosons from their boseeinstein distribution)
== historyedit ==
in the early 20th century it became evident that atoms and molecules with even numbers of electrons are more chemically stable than those with odd numbers of electrons in the 1916 article "the atom and the molecule" by gilbert n lewis for example the third of his six postulates of chemical behavior states that the atom tends to hold an even number of electrons in the shell and especially to hold eight electrons which are normally arranged symmetrically at the eight corners of a cube (see: cubical atom) in 1919 chemist irving langmuir suggested that the periodic table could be explained if the electrons in an atom were connected or clustered in some manner groups of electrons were thought to occupy a set of electron shells around the nucleus in 1922 niels bohr updated his model of the atom by assuming that certain numbers of electrons (for example 2 8 and 18) corresponded to stable "closed shells"
pauli looked for an explanation for these numbers which were at first only empirical at the same time he was trying to explain experimental results of the zeeman effect in atomic spectroscopy and in ferromagnetism he found an essential clue in a 1924 paper by edmund c stoner which pointed out that for a given value of the principal quantum number (n) the number of energy levels of a single electron in the alkali metal spectra in an external magnetic field where all degenerate energy levels are separated is equal to the number of electrons in the closed shell of the noble gases for the same value of n this led pauli to realize that the complicated numbers of electrons in closed shells can be reduced to the simple rule of one electron per state if the electron states are defined using four quantum numbers for this purpose he introduced a new two-valued quantum number identified by samuel goudsmit and george uhlenbeck as electron spin
== connection to quantum state symmetryedit ==
the pauli exclusion principle with a single-valued many-particle wavefunction is equivalent to requiring the wavefunction to be antisymmetric an antisymmetric two-particle state is represented as a sum of states in which one particle is in state and the other in state :
and antisymmetry under exchange means that a(x,y) = a(y,x) this implies a(x,y) = 0 when x=y which is pauli exclusion it is true in any basis since unitary changes of basis keep antisymmetric matrices antisymmetric although strictly speaking the quantity a(x,y) is not a matrix but an antisymmetric rank-two tensor
conversely if the diagonal quantities a(x,x) are zero in every basis then the wavefunction component
is necessarily antisymmetric to prove it consider the matrix element
this is zero because the two particles have zero probability to both be in the superposition state  but this is equal to
the first and last terms on the right side are diagonal elements and are zero and the whole sum is equal to zero so the wavefunction matrix elements obey:
or
=== pauli principle in advanced quantum theoryedit ===
according to the spin-statistics theorem particles with integer spin occupy symmetric quantum states and particles with half-integer spin occupy antisymmetric states; furthermore only integer or half-integer values of spin are allowed by the principles of quantum mechanics in relativistic quantum field theory the pauli principle follows from applying a rotation operator in imaginary time to particles of half-integer spin
in one dimension bosons as well as fermions can obey the exclusion principle a one-dimensional bose gas with delta-function repulsive interactions of infinite strength is equivalent to a gas of free fermions the reason for this is that in one dimension exchange of particles requires that they pass through each other; for infinitely strong repulsion this cannot happen this model is described by a quantum nonlinear schrdinger equation in momentum space the exclusion principle is valid also for finite repulsion in a bose gas with delta-function interactions as well as for interacting spins and hubbard model in one dimension and for other models solvable by bethe ansatz the ground state in models solvable by bethe ansatz is a fermi sphere
== consequencesedit ==
=== atoms and the pauli principleedit ===
the pauli exclusion principle helps explain a wide variety of physical phenomena one particularly important consequence of the principle is the elaborate electron shell structure of atoms and the way atoms share electrons explaining the variety of chemical elements and their chemical combinations an electrically neutral atom contains bound electrons equal in number to the protons in the nucleus electrons being fermions cannot occupy the same quantum state as other electrons so electrons have to "stack" within an atom i.e have different spins while at the same electron orbital as described below
an example is the neutral [helium] atom which has two bound electrons both of which can occupy the lowest-energy (1s) states by acquiring opposite spin; as spin is part of the quantum state of the electron the two electrons are in different quantum states and do not violate the pauli principle however the spin can take only two different values (eigenvalues) in a lithium atom with three bound electrons the third electron cannot reside in a 1s state and must occupy one of the higher-energy 2s states instead similarly successively larger elements must have shells of successively higher energy the chemical properties of an element largely depend on the number of electrons in the outermost shell; atoms with different numbers of occupied electron shells but the same number of electrons in the outermost shell have similar properties which gives rise to the periodic table of the elements
=== solid state properties and the pauli principleedit ===
in conductors and semiconductors there are very large numbers of molecular orbitals which effectively form a continuous band structure of energy levels in strong conductors (metals) electrons are so degenerate that they cannot even contribute much to the thermal capacity of a metal many mechanical electrical magnetic optical and chemical properties of solids are the direct consequence of pauli exclusion
=== stability of matteredit ===
the stability of the electrons in an atom itself is unrelated to the exclusion principle but is described by the quantum theory of the atom the underlying idea is that close approach of an electron to the nucleus of the atom necessarily increases its kinetic energy an application of the uncertainty principle of heisenberg however stability of large systems with many electrons and many nucleons is a different matter and requires the pauli exclusion principle
it has been shown that the pauli exclusion principle is responsible for the fact that ordinary bulk matter is stable and occupies volume this suggestion was first made in 1931 by paul ehrenfest who pointed out that the electrons of each atom cannot all fall into the lowest-energy orbital and must occupy successively larger shells atoms therefore occupy a volume and cannot be squeezed too closely together
a more rigorous proof was provided in 1967 by freeman dyson and andrew lenard who considered the balance of attractive (electronnuclear) and repulsive (electronelectron and nuclearnuclear) forces and showed that ordinary matter would collapse and occupy a much smaller volume without the pauli principle
the consequence of the pauli principle here is that electrons of the same spin are kept apart by a repulsive exchange interaction which is a short-range effect acting simultaneously with the long-range electrostatic or coulombic force this effect is partly responsible for the everyday observation in the macroscopic world that two solid objects cannot be in the same place at the same time
=== astrophysics and the pauli principleedit ===
dyson and lenard did not consider the extreme magnetic or gravitational forces which occur in some astronomical objects in 1995 elliott lieb and coworkers showed that the pauli principle still leads to stability in intense magnetic fields such as in neutron stars although at a much higher density than in ordinary matter it is a consequence of general relativity that in sufficiently intense gravitational fields matter collapses to form a black hole
astronomy provides a spectacular demonstration of the effect of the pauli principle in the form of white dwarf and neutron stars in both bodies atomic structure is disrupted by large gravitational forces but the stars are held in hydrostatic equilibrium by degeneracy pressure also known as fermi pressure this exotic form of matter is known as degenerate matter the immense gravitational force of a star's mass is normally held in equilibrium by thermal pressure caused by heat produced in thermonuclear fusion in the star's core in white dwarfs which do not undergo nuclear fusion an opposing force to gravity is provided by electron degeneracy pressure in neutron stars subject to even stronger gravitational forces electrons have merged with protons to form neutrons neutrons are capable of producing an even higher degeneracy pressure neutron degeneracy pressure albeit over a shorter range this can stabilize neutron stars from further collapse but at a smaller size and higher density than a white dwarf neutrons are the most "rigid" objects known; their young modulus (or more accurately bulk modulus) is 20 orders of magnitude larger than that of diamond however even this enormous rigidity can be overcome by the gravitational field of a massive star or by the pressure of a supernova leading to the formation of a black hole
== see alsoedit ==
exchange force
exchange interaction
exchange symmetry
hund's rule
fermi hole
pauli effect
fermi-dirac distribution
== referencesedit ==
== external linksedit ==
nobel lecture: exclusion principle and quantum mechanics pauli's own account of the development of the exclusion principle
