in physics radiation is the emission or transmission of energy in the form of waves or particles through space or through a material medium this includes:
electro-magnetic radiation such as radio waves visible light x-rays and gamma radiation ()
particle radiation such as alpha radiation () beta radiation () and neutron radiation (particles of non-zero rest energy)
acoustic radiation such as ultrasound sound and seismic waves (dependent on a physical transmission medium)
radiation is often categorized as either ionizing or non-ionizing depending on the energy of the radiated particles ionizing radiation carries more than 10 ev which is enough to ionize atoms and molecules and break chemical bonds this is an important distinction due to the large difference in harmfulness to living organisms a common source of ionizing radiation is radioactive materials that emit   or radiation consisting of helium nuclei electrons or positrons and photons respectively other sources include x-rays from medical radiography examinations and muons mesons positrons neutrons and other particles that constitute the secondary cosmic rays that are produced after primary cosmic rays interact with earth's atmosphere
gamma rays x-rays and the higher energy range of ultraviolet light constitute the ionizing part of the electromagnetic spectrum the lower-energy longer-wavelength part of the spectrum including visible light infrared light microwaves and radio waves is non-ionizing; its main effect when interacting with tissue is heating this type of radiation only damages cells if the intensity is high enough to cause excessive heating ultraviolet radiation has some features of both ionizing and non-ionizing radiation while the part of the ultraviolet spectrum that penetrates the earth's atmosphere is non-ionizing this radiation does far more damage to many molecules in biological systems than can be accounted for by heating effects sunburn being a well-known example these properties derive from ultraviolet's power to alter chemical bonds even without having quite enough energy to ionize atoms
the word radiation arises from the phenomenon of waves radiating (i.e. traveling outward in all directions) from a source this aspect leads to a system of measurements and physical units that are applicable to all types of radiation because such radiation expands as it passes through space and as its energy is conserved (in vacuum) the intensity of all types of radiation from a point source follows an inverse-square law in relation to the distance from its source this law does not apply close to an extended source of radiation or for focused beams
== ionizing radiation ==
radiation with sufficiently high energy can ionize atoms; that is to say it can knock electrons off atoms and create ions ionization occurs when an electron is stripped (or "knocked out") from an electron shell of the atom which leaves the atom with a net positive charge because living cells and more importantly the dna in those cells can be damaged by this ionization exposure to ionizing radiation is considered to increase the risk of cancer thus "ionizing radiation" is somewhat artificially separated from particle radiation and electromagnetic radiation simply due to its great potential for biological damage while an individual cell is made of trillions of atoms only a small fraction of those will be ionized at low to moderate radiation powers the probability of ionizing radiation causing cancer is dependent upon the absorbed dose of the radiation and is a function of the damaging tendency of the type of radiation (equivalent dose) and the sensitivity of the irradiated organism or the tissue's (effective dose)
if the source of the ionizing radiation is a radioactive material or a nuclear process such as fission or fusion there is particle radiation to consider particle radiation is subatomic particles accelerated to relativistic speeds by nuclear reactions because of their momenta they are quite capable of knocking out electrons and ionizing materials but since most have an electrical charge they don't have the penetrating power of ionizing radiation the exception is neutron particles; see below there are several different kinds of these particles but the majority are alpha particles beta particles neutrons and protons roughly speaking photons and particles with energies above about 10 electron volts (ev) are ionizing (some authorities use 33 ev the ionization energy for water) particle radiation from radioactive material or cosmic rays almost invariably carries enough energy to be ionizing
much ionizing radiation originates from radioactive materials and space (cosmic rays) and as such is naturally present in the environment since most rock and soil has small concentrations of radioactive materials the radiation is invisible and not directly detectable by human senses; as a result instruments such as geiger counters are usually required to detect its presence in some cases it may lead to secondary emission of visible light upon its interaction with matter as in the case of cherenkov radiation and radio-luminescence
ionizing radiation has many practical uses in medicine research and construction but presents a health hazard if used improperly exposure to radiation causes damage to living tissue; high doses result in acute radiation syndrome (ars) with skin burns hair loss internal organ failure and death while any dose may result in an increased chance of cancer and genetic damage; a particular form of cancer thyroid cancer often occurs when nuclear weapons and reactors are the radiation source because of the biological proclivities of the radioactive iodine fission product iodine-131 however calculating the exact risk and chance of cancer forming in cells caused by ionizing radiation is still not well understood and currently estimates are loosely determined by population based on data from the atomic bombing in japan and from reactor accident follow-up such as with the chernobyl disaster the international commission on radiological protection states that "the commission is aware of uncertainties and lack of precision of the models and parameter values" "collective effective dose is not intended as a tool for epidemiological risk assessment and it is inappropriate to use it in risk projections" and "in particular the calculation of the number of cancer deaths based on collective effective doses from trivial individual doses should be avoided."
=== ultraviolet radiation ===
ultraviolet of wavelengths from 10 nm to 125 nm ionizes air molecules causing it to be strongly absorbed by air and by ozone (o3) in particular ionizing uv therefore does not penetrate earth's atmosphere to a significant degree and is sometimes referred to as vacuum ultraviolet although present in space this part of the uv spectrum is not of biological importance because it does not reach living organisms on earth
there is a zone of the atmosphere in which ozone absorbs some 98% of non-ionizing but dangerous uv-c and uv-b this so-called ozone layer starts at about 20 miles (32 km) and extends upward some of the ultraviolet spectrum that does reach the ground (the part that begins above energies of 3.1 ev a wavelength less than 400 nm) is non-ionizing but is still biologically hazardous due to the ability of single photons of this energy to cause electronic excitation in biological molecules and thus damage them by means of unwanted reactions an example is the formation of pyrimidine dimers in dna which begins at wavelengths below 365 nm (3.4 ev) which is well below ionization energy this property gives the ultraviolet spectrum some of the dangers of ionizing radiation in biological systems without actual ionization occurring in contrast visible light and longer-wavelength electromagnetic radiation such as infrared microwaves and radio waves consists of photons with too little energy to cause damaging molecular excitation and thus this radiation is far less hazardous per unit of energy
=== x-ray ===
x-rays are electromagnetic waves with a wavelength less than about 109 m (greater than 3x1017 hz and 1,240 ev) a smaller wavelength corresponds to a higher energy according to the equation e=hc/ ("e" is energy; "h" is planck's constant; "c" is the speed of light; "" is wavelength.) when an x-ray photon collides with an atom the atom may absorb the energy of the photon and boost an electron to a higher orbital level or if the photon is very energetic it may knock an electron from the atom altogether causing the atom to ionize generally larger atoms are more likely to absorb an x-ray photon since they have greater energy differences between orbital electrons soft tissue in the human body is composed of smaller atoms than the calcium atoms that make up bone hence there is a contrast in the absorption of x-rays x-ray machines are specifically designed to take advantage of the absorption difference between bone and soft tissue allowing physicians to examine structure in the human body
x-rays are also totally absorbed by the thickness of the earth's atmosphere resulting in the prevention of the x-ray output of the sun smaller in quantity than that of uv but nonetheless powerful from reaching the surface
=== gamma radiation ===
gamma () radiation consists of photons with a wavelength less than 3x10,11 meters (greater than 1019 hz and 41.4 kev) gamma radiation emission is a nuclear process that occurs to rid an unstable nucleus of excess energy after most nuclear reactions both alpha and beta particles have an electric charge and mass and thus are quite likely to interact with other atoms in their path gamma radiation however is composed of photons which have neither mass nor electric charge and as a result penetrates much further through matter than either alpha or beta radiation
gamma rays can be stopped by a sufficiently thick or dense layer of material where the stopping power of the material per given area depends mostly (but not entirely) on the total mass along the path of the radiation regardless of whether the material is of high or low density however as is the case with x-rays materials with high atomic number such as lead or depleted uranium add a modest (typically 20% to 30%) amount of stopping power over an equal mass of less dense and lower atomic weight materials (such as water or concrete) the atmosphere absorbs all gamma rays approaching earth from space even air is capable of absorbing gamma rays halving the energy of such waves by passing through on the average 500 ft (150 m)
=== alpha radiation ===
alpha particles are helium-4 nuclei (two protons and two neutrons) they interact with matter strongly due to their charges and combined mass and at their usual velocities only penetrate a few centimeters of air or a few millimeters of low density material (such as the thin mica material which is specially placed in some geiger counter tubes to allow alpha particles in) this means that alpha particles from ordinary alpha decay do not penetrate the outer layers of dead skin cells and cause no damage to the live tissues below some very high energy alpha particles compose about 10% of cosmic rays and these are capable of penetrating the body and even thin metal plates however they are of danger only to astronauts since they are deflected by the earth's magnetic field and then stopped by its atmosphere
alpha radiation is dangerous when alpha-emitting radioisotopes are ingested (breathed or swallowed) this brings the radioisotope close enough to sensitive live tissue for the alpha radiation to damage cells per unit of energy alpha particles are at least 20 times more effective at cell-damage as gamma rays and x-rays see relative biological effectiveness for a discussion of this examples of highly poisonous alpha-emitters are all isotopes of radium radon and polonium due to the amount of decay that occur in these short half-life materials
=== beta radiation ===
beta-minus () radiation consists of an energetic electron it is more penetrating than alpha radiation but less than gamma beta radiation from radioactive decay can be stopped with a few centimeters of plastic or a few millimeters of metal it occurs when a neutron decays into a proton in a nucleus releasing the beta particle and an antineutrino beta radiation from linac accelerators is far more energetic and penetrating than natural beta radiation it is sometimes used therapeutically in radiotherapy to treat superficial tumors
beta-plus (+) radiation is the emission of positrons which are the antimatter form of electrons when a positron slows to speeds similar to those of electrons in the material the positron will annihilate an electron releasing two gamma photons of 511 kev in the process those two gamma photons will be traveling in (approximately) opposite direction the gamma radiation from positron annihilation consists of high energy photons and is also ionizing
=== neutron radiation ===
neutrons are categorized according to their speed/energy neutron radiation consists of free neutrons these neutrons may be emitted during either spontaneous or induced nuclear fission neutrons are rare radiation particles; they are produced in large numbers only where chain reaction fission or fusion reactions are active; this happens for about 10 microseconds in a thermonuclear explosion or continuously inside an operating nuclear reactor; production of the neutrons stop almost immediately in the reactor when it goes non-critical
neutrons are the only type of ionizing radiation that can make other objects or material radioactive this process called neutron activation is the primary method used to produce radioactive sources for use in medical academic and industrial applications even comparatively low speed thermal neutrons cause neutron activation (in fact they cause it more efficiently) neutrons do not ionize atoms in the same way that charged particles such as protons and electrons do (by the excitation of an electron) because neutrons have no charge it is through their absorption by nuclei which then become unstable that they cause ionization hence neutrons are said to be "indirectly ionizing." even neutrons without significant kinetic energy are indirectly ionizing and are thus a significant radiation hazard not all materials are capable of neutron activation; in water for example the most common isotopes of both types atoms present (hydrogen and oxygen) capture neutrons and become heavier but remain stable forms of those atoms only the absorption of more than one neutron a statistically rare occurrence can activate a hydrogen atom while oxygen requires two additional absorptions thus water is only very weakly capable of activation the sodium in salt (as in sea water) on the other hand need only absorb a single neutron to become na-24 a very intense source of beta decay with half-life of 15 hours
in addition high-energy (high-speed) neutrons have the ability to directly ionize atoms one mechanism by which high energy neutrons ionize atoms is to strike the nucleus of an atom and knock the atom out of a molecule leaving one or more electrons behind as the chemical bond is broken this leads to production of chemical free radicals in addition very high energy neutrons can cause ionizing radiation by "neutron spallation" or knockout wherein neutrons cause emission of high-energy protons from atomic nuclei (especially hydrogen nuclei) on impact the last process imparts most of the neutron's energy to the proton much like one billiard ball striking another the charged protons and other products from such reactions are directly ionizing
high-energy neutrons are very penetrating and can travel great distances in air (hundreds or even thousands of meters) and moderate distances (several meters) in common solids they typically require hydrogen rich shielding such as concrete or water to block them within distances of less than a meter a common source of neutron radiation occurs inside a nuclear reactor where a meters-thick water layer is used as effective shielding
== cosmic radiation ==
there are two sources of high energy particles entering the earth's atmosphere from outer space: the sun and deep space the sun continuously emits particles primarily free protons in the solar wind and occasionally augments the flow hugely with coronal mass ejections (cme)
the particles from deep space (inter- and extra-galactic) are much less frequent but of much higher energies these particles are also mostly protons with much of the remainder consisting of helions (alpha particles) a few completely ionized nuclei of heavier elements are present the origin of these galactic cosmic rays is not yet well understood but they seem to be remnants of supernovae and especially gamma-ray bursts (grb) which feature magnetic fields capable of the huge accelerations measured from these particles they may also be generated by quasars which are galaxy-wide jet phenomena similar to grbs but known for their much larger size and which seem to be a violent part of the universe's early history
== non-ionizing radiation ==
the kinetic energy of particles of non-ionizing radiation is too small to produce charged ions when passing through matter for non-ionizing electromagnetic radiation (see types below) the associated particles (photons) have only sufficient energy to change the rotational vibrational or electronic valence configurations of molecules and atoms the effect of non-ionizing forms of radiation on living tissue has only recently been studied nevertheless different biological effects are observed for different types of non-ionizing radiation
even "non-ionizing" radiation is capable of causing thermal-ionization if it deposits enough heat to raise temperatures to ionization energies these reactions occur at far higher energies than with ionization radiation which requires only single particles to cause ionization a familiar example of thermal ionization is the flame-ionization of a common fire and the browning reactions in common food items induced by infrared radiation during broiling-type cooking
the electromagnetic spectrum is the range of all possible electromagnetic radiation frequencies the electromagnetic spectrum (usually just spectrum) of an object is the characteristic distribution of electromagnetic radiation emitted by or absorbed by that particular object
the non-ionizing portion of electromagnetic radiation consists of electromagnetic waves that (as individual quanta or particles see photon) are not energetic enough to detach electrons from atoms or molecules and hence cause their ionization these include radio waves microwaves infrared and (sometimes) visible light the lower frequencies of ultraviolet light may cause chemical changes and molecular damage similar to ionization but is technically not ionizing the highest frequencies of ultraviolet light as well as all x-rays and gamma-rays are ionizing
the occurrence of ionization depends on the energy of the individual particles or waves and not on their number an intense flood of particles or waves will not cause ionization if these particles or waves do not carry enough energy to be ionizing unless they raise the temperature of a body to a point high enough to ionize small fractions of atoms or molecules by the process of thermal-ionization (this however requires relatively extreme radiation intensities)
=== ultraviolet light ===
as noted above the lower part of the spectrum of ultraviolet called soft uv from 3 ev to about 10 ev is non-ionizing however the effects of non-ionizing ultraviolet on chemistry and the damage to biological systems exposed to it (including oxidation mutation and cancer) are such that even this part of ultraviolet is often compared with ionizing radiation
=== visible light ===
light or visible light is a very narrow range of electromagnetic radiation of a wavelength that is visible to the human eye or 380750 nm which equates to a frequency range of 790 to 400 thz respectively more broadly physicists use the term "light" to mean electromagnetic radiation of all wavelengths whether visible or not
=== infrared ===
infrared (ir) light is electromagnetic radiation with a wavelength between 0.7 and 300 micrometers which corresponds to a frequency range between 430 to 1 thz respectively ir wavelengths are longer than that of visible light but shorter than that of microwaves infrared may be detected at a distance from the radiating objects by "feel." infrared sensing snakes can detect and focus infrared by use of a pinhole lens in their heads called "pits" bright sunlight provides an irradiance of just over 1 kilowatt per square meter at sea level of this energy 53% is infrared radiation 44% is visible light and 3% is ultraviolet radiation
=== microwave ===
microwaves are electromagnetic waves with wavelengths ranging from as short as one millimeter to as long as one meter which equates to a frequency range of 300 ghz to 300 mhz this broad definition includes both uhf and ehf (millimeter waves) but various sources use different other limits in all cases microwaves include the entire super high frequency band (3 to 30 ghz or 10 to 1 cm) at minimum with rf engineering often putting the lower boundary at 1 ghz (30 cm) and the upper around 100 ghz (3mm)
=== radio waves ===
radio waves are a type of electromagnetic radiation with wavelengths in the electromagnetic spectrum longer than infrared light like all other electromagnetic waves they travel at the speed of light naturally occurring radio waves are made by lightning or by certain astronomical objects artificially generated radio waves are used for fixed and mobile radio communication broadcasting radar and other navigation systems satellite communication computer networks and innumerable other applications in addition almost any wire carrying alternating current will radiate some of the energy away as radio waves; these are mostly termed interference different frequencies of radio waves have different propagation characteristics in the earth's atmosphere; long waves may bend at the rate of the curvature of the earth and may cover a part of the earth very consistently shorter waves travel around the world by multiple reflections off the ionosphere and the earth much shorter wavelengths bend or reflect very little and travel along the line of sight
=== very low frequency ===
very low frequency (vlf) refers to a frequency range of 30 hz to 3 khz which corresponds to wavelengths of 100,000 to 10,000 meters respectively since there is not much bandwidth in this range of the radio spectrum only the very simplest signals can be transmitted such as for radio navigation also known as the myriameter band or myriameter wave as the wavelengths range from ten to one myriameter (an obsolete metric unit equal to 10 kilometers)
=== extremely low frequency ===
extremely low frequency (elf) is radiation frequencies from 3 to 30 hz (108 to 107 meters respectively) in atmosphere science an alternative definition is usually given from 3 hz to 3 khz in the related magnetosphere science the lower frequency electromagnetic oscillations (pulsations occurring below ~3 hz) are considered to lie in the ulf range which is thus also defined differently from the itu radio bands a massive military elf antenna in michigan radiates very slow messages to otherwise unreachable receivers such as submerged submarines
=== thermal radiation (heat) ===
thermal radiation is a common synonym for infrared radiation emitted by objects at temperatures often encountered on earth thermal radiation refers not only to the radiation itself but also the process by which the surface of an object radiates its thermal energy in the form black body radiation infrared or red radiation from a common household radiator or electric heater is an example of thermal radiation as is the heat emitted by an operating incandescent light bulb thermal radiation is generated when energy from the movement of charged particles within atoms is converted to electromagnetic radiation
as noted above even low-frequency thermal radiation may cause temperature-ionization whenever it deposits sufficient thermal energy to raises temperatures to a high enough level common examples of this are the ionization (plasma) seen in common flames and the molecular changes caused by the "browning" during food-cooking which is a chemical process that begins with a large component of ionization
=== black-body radiation ===
black-body radiation is an idealized spectrum of radiation emitted by a body that is at a uniform temperature the shape of the spectrum and the total amount of energy emitted by the body is a function the absolute temperature of that body the radiation emitted covers the entire electromagnetic spectrum and the intensity of the radiation (power/unit-area) at a given frequency is described by planck's law of radiation for a given temperature of a black-body there is a particular frequency at which the radiation emitted is at its maximum intensity that maximum radiation frequency moves toward higher frequencies as the temperature of the body increases the frequency at which the black-body radiation is at maximum is given by wien's displacement law and is a function of the body's absolute temperature a black-body is one that emits at any temperature the maximum possible amount of radiation at any given wavelength a black-body will also absorb the maximum possible incident radiation at any given wavelength a black-body with a temperature at or below room temperature would thus appear absolutely black as it would not reflect any incident light nor would it emit enough radiation at visible wavelengths for our eyes to detect theoretically a black-body emits electromagnetic radiation over the entire spectrum from very low frequency radio waves to x-rays creating a continuum of radiation
the color of a radiating black-body tells the temperature of its radiating surface it is responsible for the color of stars which vary from infrared through red (2,500k) to yellow (5,800k) to white and to blue-white (15,000k) as the peak radiance passes through those points in the visible spectrum when the peak is below the visible spectrum the body is black while when it is above the body is blue-white since all the visible colors are represented from blue decreasing to red
== discovery ==
electromagnetic radiation of wavelengths other than visible light were discovered in the early 19th century the discovery of infrared radiation is ascribed to william herschel the astronomer herschel published his results in 1800 before the royal society of london herschel like ritter used a prism to refract light from the sun and detected the infrared (beyond the red part of the spectrum) through an increase in the temperature recorded by a thermometer
in 1801 the german physicist johann wilhelm ritter made the discovery of ultraviolet by noting that the rays from a prism darkened silver chloride preparations more quickly than violet light ritter's experiments were an early precursor to what would become photography ritter noted that the uv rays were capable of causing chemical reactions
the first radio waves detected were not from a natural source but were produced deliberately and artificially by the german scientist heinrich hertz in 1887 using electrical circuits calculated to produce oscillations in the radio frequency range following formulas suggested by the equations of james clerk maxwell
wilhelm rntgen discovered and named x-rays while experimenting with high voltages applied to an evacuated tube on 8 november 1895 he noticed a fluorescence on a nearby plate of coated glass within a month he discovered the main properties of x-rays that we understand to this day
in 1896 henri becquerel found that rays emanating from certain minerals penetrated black paper and caused fogging of an unexposed photographic plate his doctoral student marie curie discovered that only certain chemical elements gave off these rays of energy she named this behavior radioactivity
alpha rays (alpha particles) and beta rays (beta particles) were differentiated by ernest rutherford through simple experimentation in 1899 rutherford used a generic pitchblende radioactive source and determined that the rays produced by the source had differing penetrations in materials one type had short penetration (it was stopped by paper) and a positive charge which rutherford named alpha rays the other was more penetrating (able to expose film through paper but not metal) and had a negative charge and this type rutherford named beta this was the radiation that had been first detected by becquerel from uranium salts in 1900 the french scientist paul villard discovered a third neutrally charged and especially penetrating type of radiation from radium and after he described it rutherford realized it must be yet a third type of radiation which in 1903 rutherford named gamma rays
henri becquerel himself proved that beta rays are fast electrons while rutherford and thomas royds proved in 1909 that alpha particles are ionized helium rutherford and edward andrade proved in 1914 that gamma rays are like x-rays but with shorter wavelengths
cosmic ray radiations striking the earth from outer space were finally definitively recognized and proven to exist in 1912 as the scientist victor hess carried an electrometer to various altitudes in a free balloon flight the nature of these radiations was only gradually understood in later years
neutron radiation was discovered with the neutron by chadwick in 1932 a number of other high energy particulate radiations such as positrons muons and pions were discovered by cloud chamber examination of cosmic ray reactions shortly thereafter and others types of particle radiation were produced artificially in particle accelerators through the last half of the twentieth century
== uses ==
=== medicine ===
radiation and radioactive substances are used for diagnosis treatment and research x-rays for example pass through muscles and other soft tissue but are stopped by dense materials this property of x-rays enables doctors to find broken bones and to locate cancers that might be growing in the body doctors also find certain diseases by injecting a radioactive substance and monitoring the radiation given off as the substance moves through the body radiation used for cancer treatment is called ionizing radiation because it forms ions in the cells of the tissues it passes through as it dislodges electrons from atoms this can kill cells or change genes so the cells cannot grow other forms of radiation such as radio waves microwaves and light waves are called non-ionizing they don't have as much energy and are not able to ionize cells
=== communication ===
all modern communication systems use forms of electromagnetic radiation variations in the intensity of the radiation represent changes in the sound pictures or other information being transmitted for example a human voice can be sent as a radio wave or microwave by making the wave vary to correspond variations in the voice musicians have also experimented with gamma sonification or using nuclear radiation to produce sound and music
=== science ===
researchers use radioactive atoms to determine the age of materials that were once part of a living organism the age of such materials can be estimated by measuring the amount of radioactive carbon they contain in a process called radiocarbon dating similarly using other radioactive elements the age of rocks and other geological features (even some man-made objects) can be determined; this is called radiometric dating environmental scientists use radioactive atoms known as tracer atoms to identify the pathways taken by pollutants through the environment
radiation is used to determine the composition of materials in a process called neutron activation analysis in this process scientists bombard a sample of a substance with particles called neutrons some of the atoms in the sample absorb neutrons and become radioactive the scientists can identify the elements in the sample by studying the emitted radiation
== see also ==
== notes and references ==
== external links ==
radiation on in our time at the bbc (listen now)
health physics society public education website
ionizing radiation and radon from world health organization
