the supercontinent cycle is the quasi-periodic aggregation and dispersal of earth's continental crust there are varying opinions as to whether the amount of continental crust is increasing decreasing or staying about the same but it is agreed that the earth's crust is constantly being reconfigured one complete supercontinent cycle is said to take 300 to 500 million years continental collision makes fewer and larger continents while rifting makes more and smaller continents
== description ==
the most recent supercontinent pangaea formed about 300 million years ago there are two different views on the history of earlier supercontinents the first proposes a series of supercontinents: vaalbara (~3.6 to ~2.8 billion years ago); ur (~3 billion years ago); kenorland (~2.7 to ~2.1 billion years ago); columbia (~1.8 to ~1.5 billion years ago); rodinia (~1.25 billion to ~750 million years ago); and pannotia (~600 million years ago) whose dispersal produced the fragments that ultimately collided to form pangaea
the second view (protopangea-paleopangea) based on both palaeomagnetic and geological evidence is that supercontinent cycles did not occur before about 0.6 ga (during the ediacaran period) instead the continental crust comprised a single supercontinent from about 2.7 ga until it broke up for the first time somewhere around 0.6 ga this reconstruction is based on the observation that if only small peripheral modifications are made to the primary reconstruction the data show that the palaeomagnetic poles converged to quasi-static positions for long intervals between about 2.72.2 1.51.25 and 0.750.6 ga  during the intervening periods the poles appear to have conformed to a unified apparent polar wander path thus the paleomagnetic data are adequately explained by the existence of a single protopangea-paleopangea supercontinent with prolonged quasi-integrity the prolonged duration of this supercontinent could be explained by the operation of lid tectonics (comparable to the tectonics operating on mars and venus) during precambrian times as opposed to the plate tectonics seen on the contemporary earth
the kinds of minerals found inside ancient diamonds suggest that the cycle of supercontinental formation and breakup began roughly 3.0 billion years ago before 3.2 billion years ago only diamonds with peridotitic compositions (commonly found in the earth's mantle) formed whereas after 3.0 billion years ago eclogitic diamonds (rocks from the earth's surface crust) became prevalent this change is thought to have come about because the process of subduction and continental collision introduced eclogite into subcontinental diamond-forming fluids
the hypothesized supercontinent cycle is complemented by the wilson cycle named after plate tectonics pioneer j tuzo wilson which describes the periodic opening and closing of ocean basins because the oldest seafloor material found today dates to only 170 million years old whereas the oldest continental crust material found today dates to at least 4 billion years old it makes sense to emphasize the much longer record of the planetary pulse that is recorded in the continents
== effects on sea level ==
it is known that sea level is generally low when the continents are together and high when they are apart for example sea level was low at the time of formation of pangaea (permian) and pannotia (latest neoproterozoic) and rose rapidly to maxima during ordovician and cretaceous times when the continents were dispersed this is because the age of the oceanic lithosphere provides a major control on the depth of the ocean basins and therefore on global sea level oceanic lithosphere forms at mid-ocean ridges and moves outwards as this happens it conductively cools and shrinks this cooling and shrinking decreases the thickness and increases the density of the oceanic lithosphere and the result is the general lowering in elevation of the seafloor away from mid-ocean ridges for oceanic lithosphere that is less than about 75 million years old a simple cooling half-space model of conductive cooling works in which the depth of the ocean basins in areas in which there is no nearby subduction is a function of the age of the oceanic lithosphere  in general
where is the thermal diffusivity of the mantle lithosphere (~8107 m2/s) is the effective thermal expansion coefficient for rock (~5.7105 c 1) is the temperature of ascending magma compared to the temperature at the upper boundary (~1220 c for the atlantic and indian oceans ~1120 c for the eastern pacific) and is the depth of the ridge below the ocean surface after plugging in rough numbers for the sea floor the equation becomes:
for the eastern pacific ocean and:
for the atlantic and indian oceans where is in meters and is in millions of years so that just-formed crust at the mid-ocean ridges lies at about 2,500 m depth whereas 50-million-year-old seafloor lies at a depth of about 5000 m
as the mean level of the sea floor decreases the volume of the ocean basins increases and if other factors that can control sea level remain constant sea level falls the converse is also true: younger oceanic lithosphere leads to shallower oceans and higher sea levels if other factors remain constant
area a of the oceans can change when continents rift (stretching the continents decreases a and raises sea level) or as a result of continental collision (compressing the continents leads to an increase a and lowers sea level) increasing sea level will flood the continents while decreasing sea level will expose continental shelves
because the continental shelf has a very low slope a small increase in sea level will result in a large change in the percent of continents flooded
if the world ocean on average is young the seafloor will be relatively shallow and sea level will be high: more of the continents are flooded if the world ocean is on average old seafloor will be relatively deep and sea level will be low: more of the continents will be exposed
there is thus a relatively simple relationship between the supercontinent cycle and the mean age of the seafloor
supercontinent = lots of old seafloor = low sea level
dispersed continents = lots of young seafloor = high sea level
there will also be a climatic effect of the supercontinent cycle that will amplify this further:
supercontinent = continental climate dominant = continental glaciation likely = still lower sea level
dispersed continents = maritime climate dominant = continental glaciation unlikely = sea level is not lowered by this mechanism
== relation to global tectonics ==
there is a progression of tectonic regimes that accompany the supercontinent cycle:
during break-up of the supercontinent rifting environments dominate this is followed by passive margin environments while seafloor spreading continues and the oceans grow this in turn is followed by the development of collisional environments that become increasingly important with time first collisions are between continents and island arcs but lead ultimately to continent-continent collisions this is the situation that was observed during the paleozoic supercontinent cycle and is being observed for the mesozoic-cenozoic supercontinent cycle still in progress
== relation to climate ==
there are two types of global earth climates: icehouse and greenhouse icehouse is characterized by frequent continental glaciations and severe desert environments greenhouse is characterized by warm climates both reflect the supercontinent cycle we are now in a little greenhouse phase of an icehouse world
icehouse climate
continents moving together
sea level low due to lack of seafloor production
climate cooler arid
associated with aragonite seas
formation of supercontinents
greenhouse climate
continents dispersed
sea level high
high level of sea floor spreading
relatively large amounts of co2 production at oceanic rifting zones
climate warm and humid
associated with calcite seas
periods of icehouse climate: much of neoproterozoic late paleozoic late cenozoic
periods of greenhouse climate: early paleozoic mesozoic-early cenozoic
== relation to evolution ==
the principal mechanism for evolution is natural selection among diverse populations as genetic drift occurs more frequently in small populations diversity is an observed consequence of isolation less isolation and thus less diversification occurs when the continents are all together producing both one continent and one ocean with one coast in latest neoproterozoic to early paleozoic times when the tremendous proliferation of diverse metazoa occurred isolation of marine environments resulted from the breakup of pannotia
a northsouth arrangement of continents and oceans leads to much more diversity and isolation than eastwest arrangements northsouth arrangements give climatically different zones along the communication routes to the north and south which are separated by water or land from other continental or oceanic zones of similar climate formation of similar tracts of continents and ocean basins oriented eastwest would lead to much less isolation diversification and slower evolution since each continent or ocean is in fewer climatic zones through the cenozoic isolation has been maximized by a northsouth arrangement
diversity as measured by the number of families follows the supercontinent cycle very well
== references ==
== further reading ==
gurnis m (1988) "large-scale mantle convection and the aggregation and dispersal of supercontinents" nature 332 (6166): 695699 bibcode:1988natur.332..695g doi:10.1038/332695a0
murphy j b.; nance r d (1992) "supercontinents and the origin of mountain belts" scientific american 266 (4): 8491 bibcode:1992sciam.266...84m doi:10.1038/scientificamerican0492-84
nance r d.; worsley t r.; moody j b (1988) "the supercontinent cycle" scientific american 259 (1): 7279 bibcode:1988sciam.259...72n doi:10.1038/scientificamerican0788-72
== external links ==
reconstructions from "paleomap project"
plate reconstruction movies from utig 'plates' project
a tectonic rock cycle
