supersaturation is a state of a solution that contains more of the dissolved material than could be dissolved by the solvent under normal circumstances it can also refer to a vapor of a compound that has a higher (partial) pressure than the vapor pressure of that compound
== preparation ==
special conditions need to be met in order to generate a supersaturated solution one of the easiest ways to do this relies on the temperature dependence of solubility as a general rule the more heat is added to a system the more soluble a substance becomes (there are exceptions where the opposite is true) therefore at high temperatures more solute can be dissolved than at room temperature if this solution were to be suddenly cooled at a rate faster than the rate of precipitation the solution will become supersaturated until the solute precipitates to the temperature-determined saturation point the precipitation or crystallization of the solute takes longer than the actual cooling time because the molecules need to meet up and form the precipitate without being knocked apart by water thus the larger the molecule the longer it will take to crystallize due to the principles of brownian motion
the condition of supersaturation does not necessarily have to be reached through the manipulation of heat the ideal gas law
suggests that pressure and volume can also be changed to force a system into a supersaturated state if the volume of solvent is decreased the concentration of the solute can be above the saturation point and thus create a supersaturated solution the decrease in volume is most commonly generated through evaporation similarly an increase in pressure can drive a solution to a supersaturated state all three of these mechanisms rely on the fact that the conditions of the solution can be changed quicker than the solute can precipitate or crystallize out
== phase change (crystallization and condensation) ==
supersaturated solutions will also undergo crystallization under specific conditions in a normal solution once the maximum amount of solute is dissolved adding more solute would either cause the dissolved solute to precipitate out and/or for the solute to not dissolve at all similarly there are cases wherein solubility of a saturated solution is decreased by manipulating temperature pressure or volume but a supersaturated state does not occur in these cases the solute will simply precipitate out this is due to the fact that a supersaturated solution is in a higher energy state than a saturated solution
crystallization will occur to allow the solution to reach a lower energy state.(keep in mind that this process can be exothermic or endothermic) the activation energy comes in the form of a nuclei crystal being added to the liquid solution (or a condensation nuclei when the solution is gaseous) this nuclei can be either added from another source which is known as seeding or can spontaneously form within the solution due partly to ion and molecule interactions this process is known as primary nucleation it is necessary for the nuclei to be identical to the solute that is crystallizing this will allow for the dissolved ions to build up on the nuclei and then each other in the process of crystal growth or secondary nucleation there are a multitude of factors that will affect the rate and order of magnitude with which crystallization proceeds as well as the difference in formation of crystallites and single crystals
a crystallization phase diagram shows where undersaturation saturation and supersaturation occur at certain concentrations concentrations below the solubility curve result in an undersaturation solution saturation occurs when the concentrations are on the solubility curve if the concentrations are above the solubility curve the solution is considered supersaturated there are three mechanisms with which supersaturation occurs: precipitation nucleation and metastable in the precipitation zone the molecules in a solution are in excess and will separate from the solution to form amorphous aggregates the excess of molecules aggregate to form a crystalline structure when in the nucleation zone in the metastable zone the solution takes time to nucleate in order to grow crystals while in the metastable zone the conditions would require the formation of one nucleus while in the nucleation zone just past the metastable region the supersaturated solution can then return to the metastable region
== methodologies of measurement ==
table 1 supersaturation measurement methods (profos 1987)
== history ==
supersaturation has been a frequent topic of research throughout history early studies of these solutions were normally conducted with sodium sulfate also known as glaubers salt due to the stability of the crystal and the rising role it had in industry through the use of this salt an important scientific discovery was made by jean-baptiste ziz a botanist from of mayence in 1809 his experiments allowed him to conclude that the crystallization of a supersaturated solution does not simply come from its agitation (the previous belief) but from solid matter entering and acting as a starting site for crystals to form now called nuclei sites expanding upon this gay-lussac brought attention to the kinematics of salt ions and the characteristics of the container having an impact on the supersaturation state he was also able to expand upon the number of salts with which a supersaturated solution can be obtained later henri lwel came to the conclusion that both nuclei of the solution and the walls of the container have a catalyzing effect on the solution that cause crystallization explaining and providing a model for this phenomenon has been a task taken on by more recent research dsir gernez contributed to this research by discovering that nuclei must be of the same salt that is being crystallized in order to yield crystallization
== applications ==
supersaturation is a widely encountered phenomenon both found in environmental processes and exploited in commercial manufacturing for example honey the sweet nectar-derived food source is a supersaturated solution of sugars nectar itself is a sugary solution below the point of saturation once bees harvest the nectar they fan it rapidly with their wings to force evaporation this forces the solution into a supersaturated state creating honey this explains why honey crystallizes the solution is simply returning to its saturated state
certain candies are made by crystallizing supersaturated solutions of sugar to make rock candy manufacturers can raise a solvent to a high temperature add sugar to reach a high concentration and then lower the temperature if a string or stick is present in the solution as it cools the crystallization will occur on that solid and create a candy this is the same principle that leads maple syrup to crystallize
the carbonation of water is also reliant upon the behavior of supersaturated solutions in this case the solution is supersaturated with a gas to create sodas and seltzer water carbon dioxide gas is forced to dissolve in water beyond its saturation point this is done by applying high amounts of pressure to the gas in the presence of water followed by sealing the system in an airtight manner
the characteristics of supersaturation have practical applications in terms of pharmaceuticals by creating a supersaturated solution of a certain drug it can be ingested in liquid form the drug can be made driven into a supersaturated state through any normal mechanism and then prevented from precipitating out by adding precipitation inhibitors drugs in this state are referred to as "supersaturating drug delivery services," or "sdds." oral consumption of a drug in this form is simple and allows for the measurement of very precise dosages primarily it provides a means for drugs with very low solubility to be made into aqueous solutions
the identification of supersaturated solutions can be used as a tool for marine ecologists to study the activity of organisms and populations photosynthetic organisms release o2 gas into the water thus an area of the ocean supersaturated with o2 gas can likely determined to be rich with photosynthetic activity though some o2 will naturally be found in the ocean due to simple physical chemical properties upwards of 70% of all oxygen gas found in supersaturated regions can be attributed to photosynthetic activity
the study of supersaturation is also relevant to atmospheric studies since the 1940s the presence of supersaturation in the atmosphere has been known when water is supersaturated in the troposphere the formation of ice lattices is frequently observed in a state of saturation the water particles will not form ice under tropospheric conditions it is not enough for molecules of water to form an ice lattice at saturation pressures; they require a surface to condense on to or conglomerations of liquid water molecules of water to freeze for these reasons relative humidities over ice in the atmosphere can be found above 100% meaning supersaturation as occurred supersaturation of water is actually very common in the upper troposphere occurring between 20% and 40% of the time this can be determined using satellite data from the atmospheric infrared sounder evidence of supersaturation in the troposphere can be seen in the contrails of airplanes and rocket ships which need to reach a humidity above that of ice saturation in order to form
== see also ==
supercooling
superheating
supersaturated design
saturation (chemistry)
== references ==
"mr lou's chemistry website." factors affecting solubility n.p. n.d web 20 apr 2015
"saturated solutions and solubility." apchemchys n.p. n.d web 20 apr 2015
"http://www.google.com/patents/ca1320934c?cl=en - gas dissolving method" "fitzpatrick nicholas; john kuzniarski (3 august 1993)
