vitrification (from latin vitreum "glass" via french vitrifier) is the transformation of a substance into a glass in ceramics it is the impermeability to water
== description ==
vitrification is characteristic for amorphous materials or disordered systems and occurs when bonding between elementary particles (atoms molecules forming blocks) becomes higher than a certain threshold value thermal fluctuations break the bonds; therefore the lower the temperature the higher the degree of connectivity because of that amorphous materials have a characteristic threshold temperature termed glass transition temperature (tg): below tg amorphous materials are glassy whereas above tg they are molten
usually it is achieved by rapidly cooling a liquid through the glass transition certain chemical reactions also result in glasses an important application is the vitrification of an antifreeze-like liquid in cryopreservation
in a wider sense the embedding of material in a glassy matrix is also called vitrification an important application is the vitrification of radioactive waste to obtain a stable compound that is suitable for ultimate disposal
=== in ceramics ===
vitrification is the progressive partial fusion of a clay or of a body as a result of a firing process as vitrification proceeds the proportion of glassy bond increases and the apparent porosity of the fired product becomes progressively lower vitreous bodies have open porosity and may be either opaque or translucent in this context 'zero porosity'; may be defined as less than 1% water absorption however various standard procedures define the conditions of water absorption an example is by astm who state "the term vitreous generally signifies less than 0.5 % absorption except for floor and wall tile and low-voltage electrical insulators which are considered vitreous up to 3 % water absorption."
glazing alone does not make pottery impermeable to water porcelain bone china and sanitaryware are examples of vitrified pottery and are impermeable even without glaze stoneware may be vitrified or semi-vitrified the latter type would not be impermeable without glaze
== examples ==
when sucrose is cooled slowly it results in crystal sugar (or rock candy) but when cooled rapidly it can form syrupy cotton candy (candyfloss) in the process of vitrification the solid waste is exposed to heat and is converted into a sort of glass-like substance
vitrification can also occur when starting with a liquid such as water usually through very rapid cooling or the introduction of agents that suppress the formation of ice crystals this is in contrast to ordinary freezing which results in ice crystal formation additives used in cryobiology or produced naturally by organisms living in polar regions are called cryoprotectants
arctic frogs and some other ectotherms naturally produce glycerol or glucose in their livers to reduce ice formation when glucose is used as a cryoprotectant by arctic frogs massive amounts of glucose are released at low temperature and a special form of insulin allows for this extra glucose to enter the cells when the frog rewarms during spring the extra glucose must be rapidly eliminated but stored arctic insects also use sugars as cryoprotectants arctic fish use antifreeze proteins sometimes appended with sugars as cryoprotectants
== applications ==
ordinary soda-lime glass used in windows and drinking containers is created by the addition of sodium carbonate and lime (calcium oxide) to silicon dioxide without these additives silicon dioxide will require very high temperature to obtain a melt and subsequently (with slow cooling) a glass
vitrification is a proven technique in the disposal and long-term storage of nuclear waste or other hazardous wastes in a method called geomelting waste is mixed with glass-forming chemicals in a furnace to form molten glass that then solidifies in canisters thereby immobilizing the waste the final waste form resembles obsidian and is a non-leaching durable material that effectively traps the waste inside the waste can be stored for relatively long periods in this form without concern for air or groundwater contamination bulk vitrification uses electrodes to melt soil and wastes where they lay buried the hardened waste may then be disinterred with less danger of widespread contamination according to the pacific northwest national labs "vitrification locks dangerous materials into a stable glass form that will last for thousands of years."
ethylene glycol is used as automotive antifreeze and propylene glycol has been used to reduce ice crystals in ice cream making it smoother
vitrification in cryopreservation is used as a common method to preserve for example human egg cells (oocytes) (in oocyte cryopreservation) and embryos (in embryo cryopreservation) for years glycerol has been used in cryobiology as a cryoprotectant for blood cells and bull sperm allowing storage at liquid nitrogen temperatures however glycerol cannot be used to protect whole organs from damage instead many biotechnology companies are researching the development of other cryoprotectants more suitable for such uses a successful discovery may eventually make possible the bulk cryogenic storage (or "banking") of transplantable human and xenobiotic organs a substantial step in that direction has already occurred twenty-first century medicine has vitrified a rabbit kidney to -135 c with their proprietary vitrification cocktail upon rewarming the kidney was successfully transplanted into a rabbit with complete functionality and viability able to sustain the rabbit indefinitely as the sole functioning kidney
currently vitrification techniques have only been applied to brains (neurovitrification) by alcor and to the upper body by the cryonics institute but research is in progress by both organizations to apply vitrification to the whole body
== see also ==
cryogenics
crystallization
supercooling
vitrified fort
== references ==
steven ashle (june 2002) "divide and vitrify" (pdf) scientific american retrieved may 10 2015
stefan lovgren "corpses frozen for future rebirth by arizona company" march 2005 national geographic
