waste and wastes are unwanted or unusable materials waste is any substance which is discarded after primary use or it is worthless defective and of no use
the term is often subjective (because waste to one person is not necessarily waste to another) and sometimes objectively inaccurate (for example to send scrap metals to a landfill is to inaccurately classify them as waste because they are recyclable) examples include municipal solid waste (household trash/refuse) hazardous waste wastewater (such as sewage which contains bodily wastes (feces and urine) and surface runoff) radioactive waste and others
== definitionsedit ==
=== united nations environment programedit ===
according to the basel convention
"'wastes' are substances or objects which are disposed of or are intended to be disposed of or are required to be disposed of by the provisions of national law"
=== united nations statistics division glossary of environment statisticsedit ===
"wastes are materials that are not prime products (that is products produced for the market) for which the initial user has no further use in terms of his/her own purposes of production transformation or consumption and of which he/she wants to dispose wastes may be generated during the extraction of raw materials the processing of raw materials into intermediate and final products the consumption of final products and other human activities residuals recycled or reused at the place of generation are excluded."
=== european unionedit ===
under the waste framework directive the european union defines waste as "an object the holder discards intends to discard or is required to discard."
== typesedit ==
there are many waste types defined by modern systems of waste management notably including:
municipal waste includes household waste commercial waste and demolition waste
hazardous waste includes industrial waste
biomedical waste includes clinical waste
special hazardous waste includes radioactive waste explosive waste and electronic waste (e-waste)
== reportingedit ==
there are many issues that surround reporting waste it is most commonly measured by size or weight and there is a stark difference between the two for example organic waste is much heavier when it is wet and plastic or glass bottles can have different weights but be the same size on a global scale it is difficult to report waste because countries have different definitions of waste and what falls into waste categories as well as different ways of reporting based on incomplete reports from its parties the basel convention estimated 338 million tonnes of waste was generated in 2001 for the same year oecd estimated 4 billion tonnes from its member countries despite these inconsistencies waste reporting is still useful on a small and large scale to determine key causes and locations and to find ways of preventing minimizing recovering treating and disposing waste
== costsedit ==
=== environmental costsedit ===
inappropriately managed waste can attract rodents and insects which can harbour gastrointestinal parasites yellow fever worms the plague and other conditions for humans and exposure to hazardous wastes particularly when they are burned can cause various other diseases including cancers toxic waste materials can contaminate surface water groundwater soil and air which causes more problems for humans other species and ecosystems waste treatment and disposal produces significant green house gas (ghg) emissions notably methane which are contributing significantly to global warming
=== social costsedit ===
waste management is a significant environmental justice issue many of the environmental burdens cited above are more often borne by marginalized groups such as racial minorities women and residents of developing nations nimby (not in my back yard) is the opposition of residents to a proposal for a new development because it is close to them however the need for expansion and siting of waste treatment and disposal facilities is increasing worldwide there is now a growing market in the transboundary movement of waste and although most waste that flows between countries goes between developed nations a significant amount of waste is moved from developed to developing nations
=== economic costsedit ===
the economic costs of managing waste are high and are often paid for by municipal governments; money can often be saved with more efficiently designed collection routes modifying vehicles and with public education environmental policies such as pay as you throw can reduce the cost of management and reduce waste quantities waste recovery (that is recycling reuse) can curb economic costs because it avoids extracting raw materials and often cuts transportation costs "economic assessment of municipal waste management systems case studies using a combination of life-cycle assessment (lca) and life-cycle costing (lcc)" the location of waste treatment and disposal facilities often has an impact on property values due to noise dust pollution unsightliness and negative stigma the informal waste sector consists mostly of waste pickers who scavenge for metals glass plastic textiles and other materials and then trade them for a profit this sector can significantly alter or reduce waste in a particular system but other negative economic effects come with the disease poverty exploitation and abuse of its workers
== resource recoveryedit ==
resource recovery is the retrieval of recyclable waste which was intended for disposal for a specific next use it is the processing of recyclables to extract or recover materials and resources or convert to energy this process is carried out at a resource recovery facility resource recovery is not only important to the environment but it can be cost effective by decreasing the amount of waste sent to the disposal stream reduce the amount of space needed for landfills and protect limited natural resources
== energy recoveryedit ==
energy recovery from waste is using non-recyclable waste materials and extracting from it heat electricity or energy through a variety of processes including combustion gasification pyrolyzation and anaerobic digestion this process is referred to as waste-to-energy
there are several ways to recover energy from waste anaerobic digestion is a naturally occurring process of decomposition where organic matter is reduced to a simpler chemical component in the absence of oxygen incineration or direct controlled burning of municipal solid waste to reduce waste and make energy secondary recovered fuel is the energy recovery from waste that cannot be reused or recycled from mechanical and biological treatment activities pyrolysis involves heating of waste with the absence of oxygen to high temperatures to break down any carbon content into a mixture of gaseous and liquid fuels and solid residue gasification is the conversion of carbon rich material through high temperature with partial oxidation into a gas stream plasma arc heating is the very high heating of municipal solid waste to temperatures ranging from 3,000-10,000 c where energy is released by an electrical discharge in an inert atmosphere
using waste as fuel can offer important environmental benefits it can provide a safe and cost-effective option for wastes that would normally have to be dealt with through disposal it can help reduce carbon dioxide emissions by diverting energy use from fossil fuels while also generating energy and using waste as fuel can reduce the methane emissions generated in landfills by averting waste from landfills
there is some debate in the classification of certain biomass feedstock as wastes crude tall oil (cto) a co-product of the pulp and papermaking process is defined as a waste or residue in some european countries when in fact it is produced on purpose and has significant value add potential in industrial applications several companies use cto to produce fuel while the pine chemicals industry maximizes it as a feedstock producing low-carbon bio-based chemicals through cascading use
== education and awarenessedit ==
education and awareness in the area of waste and waste management is increasingly important from a global perspective of resource management the talloires declaration is a declaration for sustainability concerned about the unprecedented scale and speed of environmental pollution and degradation and the depletion of natural resources local regional and global air pollution; accumulation and distribution of toxic wastes; destruction and depletion of forests soil and water; depletion of the ozone layer and emission of "green house" gases threaten the survival of humans and thousands of other living species the integrity of the earth and its biodiversity the security of nations and the heritage of future generations several universities have implemented the talloires declaration by establishing environmental management and waste management programs e.g the waste management universityproject university and vocational education are promoted by various organizations e.g wamitab and chartered institution of wastes management
== galleryedit ==
== see alsoedit ==
biological hazard
chemical hazards
environmental dumping
fly-tipping
garbage truck
human waste
list of waste management acronyms
litter
midden
waste by country
waste collection
waste converter
== referencesedit ==
== external linksedit ==
media related to waste at wikimedia commons
waste at dmoz
cambio verde: waste-food exchange project in curitiba brazil
waste area
resource productivity and waste at the oecd
